reset

set xlabel "y"
set ylabel "x"
set zlabel "u(x, y)"

set terminal png size 700, 500
set output 'Y0_09.png'

set yrange [0:10]
#set xrange [0:50]

set palette rgbformulae 30, 31, 32
set pm3d interpolate 2, 2

splot 'Y0_09.txt' matrix with pm3d notitle