    0.0000000000e+00    0.0000000000e+00    0.0000000000e+00
    0.0000000000e+00    1.0000000000e-01    1.3138767867e-04
    0.0000000000e+00    2.0000000000e-01    1.5301430346e-04
    0.0000000000e+00    3.0000000000e-01    4.1986518691e-05
    0.0000000000e+00    4.0000000000e-01   -1.1424706685e-04
    0.0000000000e+00    5.0000000000e-01   -1.8114938186e-04
    0.0000000000e+00    6.0000000000e-01   -8.7839722772e-05
    0.0000000000e+00    7.0000000000e-01    1.0032845115e-04
    0.0000000000e+00    8.0000000000e-01    2.1924298463e-04
    0.0000000000e+00    9.0000000000e-01    1.4270574720e-04
    2.0000000000e-02    0.0000000000e+00   -8.8801195542e-05
    2.0000000000e-02    1.0000000000e-01   -2.7370242710e-04
    2.0000000000e-02    2.0000000000e-01   -2.1529509806e-04
    2.0000000000e-02    3.0000000000e-01    7.9096969511e-05
    2.0000000000e-02    4.0000000000e-01    3.5792488928e-04
    2.0000000000e-02    5.0000000000e-01    3.2380738258e-04
    2.0000000000e-02    6.0000000000e-01   -7.0813779029e-05
    2.0000000000e-02    7.0000000000e-01   -5.0540343174e-04
    2.0000000000e-02    8.0000000000e-01   -5.1674530873e-04
    2.0000000000e-02    9.0000000000e-01    6.3659257533e-05
    4.0000000000e-02    0.0000000000e+00    8.3001466905e-04
    4.0000000000e-02    1.0000000000e-01    9.8706284389e-04
    4.0000000000e-02    2.0000000000e-01   -5.7415675210e-05
    4.0000000000e-02    3.0000000000e-01   -2.1288955069e-03
    4.0000000000e-02    4.0000000000e-01   -4.2402286021e-03
    4.0000000000e-02    5.0000000000e-01    1.0001255789e+00
    4.0000000000e-02    6.0000000000e-01   -4.3664613932e-03
    4.0000000000e-02    7.0000000000e-01   -2.2500572109e-03
    4.0000000000e-02    8.0000000000e-01   -4.7036833772e-05
    4.0000000000e-02    9.0000000000e-01    1.1190417418e-03
    6.0000000000e-02    0.0000000000e+00    9.4667145574e-04
    6.0000000000e-02    1.0000000000e-01    4.2672927439e-05
    6.0000000000e-02    2.0000000000e-01   -6.5528456437e-04
    6.0000000000e-02    3.0000000000e-01   -6.1803514878e-04
    6.0000000000e-02    4.0000000000e-01   -3.8745657057e-05
    6.0000000000e-02    5.0000000000e-01    4.6990224774e-04
    6.0000000000e-02    6.0000000000e-01    4.6694205369e-04
    6.0000000000e-02    7.0000000000e-01    3.5190349781e-05
    6.0000000000e-02    8.0000000000e-01   -3.7018052286e-04
    6.0000000000e-02    9.0000000000e-01   -3.7945923749e-04
    8.0000000000e-02    0.0000000000e+00   -3.1954250159e-05
    8.0000000000e-02    1.0000000000e-01    3.0794096755e-04
    8.0000000000e-02    2.0000000000e-01    3.2204742344e-04
    8.0000000000e-02    3.0000000000e-01    2.8993888641e-05
    8.0000000000e-02    4.0000000000e-01   -2.6543377033e-04
    8.0000000000e-02    5.0000000000e-01   -2.8127115576e-04
    8.0000000000e-02    6.0000000000e-01   -2.6273117133e-05
    8.0000000000e-02    7.0000000000e-01    2.3459096071e-04
    8.0000000000e-02    8.0000000000e-01    2.5069115520e-04
    8.0000000000e-02    9.0000000000e-01    2.3761622277e-05
    1.0000000000e-01    0.0000000000e+00   -2.2388774862e-19
    1.0000000000e-01    1.0000000000e-01    1.7890267621e-06
    1.0000000000e-01    2.0000000000e-01   -1.7466245904e-06
    1.0000000000e-01    3.0000000000e-01   -1.1114747815e-05
    1.0000000000e-01    4.0000000000e-01   -2.1057932367e-05
    1.0000000000e-01    5.0000000000e-01   -2.4488340793e-05
    1.0000000000e-01    6.0000000000e-01   -1.8451105461e-05
    1.0000000000e-01    7.0000000000e-01   -7.1985395928e-06
    1.0000000000e-01    8.0000000000e-01    7.7614960924e-07
    1.0000000000e-01    9.0000000000e-01   -3.4694469520e-20
    1.2000000000e-01    0.0000000000e+00    4.3801767768e-19
    1.2000000000e-01    1.0000000000e-01   -1.1879244451e-05
    1.2000000000e-01    2.0000000000e-01   -1.1819003666e-05
    1.2000000000e-01    3.0000000000e-01   -2.1287078937e-06
    1.2000000000e-01    4.0000000000e-01    4.6677952571e-06
    1.2000000000e-01    5.0000000000e-01   -3.1006418032e-06
    1.2000000000e-01    6.0000000000e-01   -2.3435285895e-05
    1.2000000000e-01    7.0000000000e-01   -3.8944424270e-05
    1.2000000000e-01    8.0000000000e-01   -3.1056284436e-05
    1.2000000000e-01    9.0000000000e-01   -3.2092384306e-19
    1.4000000000e-01    0.0000000000e+00   -2.6645352591e-16
    1.4000000000e-01    1.0000000000e-01    6.6687249623e-02
    1.4000000000e-01    2.0000000000e-01    1.2773800976e-01
    1.4000000000e-01    3.0000000000e-01    1.7816057580e-01
    1.4000000000e-01    4.0000000000e-01    2.1399541281e-01
    1.4000000000e-01    5.0000000000e-01    2.3259941892e-01
    1.4000000000e-01    6.0000000000e-01    1.9258530566e-01
    1.4000000000e-01    7.0000000000e-01    1.3742069696e-01
    1.4000000000e-01    8.0000000000e-01    7.1501581653e-02
    1.4000000000e-01    9.0000000000e-01   -5.6843418861e-16
    1.6000000000e-01    0.0000000000e+00    1.7347234760e-20
    1.6000000000e-01    1.0000000000e-01   -3.4226650957e-05
    1.6000000000e-01    2.0000000000e-01   -6.7706615570e-05
    1.6000000000e-01    3.0000000000e-01   -7.0229881612e-05
    1.6000000000e-01    4.0000000000e-01   -4.3175909550e-05
    1.6000000000e-01    5.0000000000e-01   -1.1583190249e-05
    1.6000000000e-01    6.0000000000e-01    2.0905856529e-06
    1.6000000000e-01    7.0000000000e-01   -2.9488649188e-06
    1.6000000000e-01    8.0000000000e-01   -9.1608982543e-06
    1.6000000000e-01    9.0000000000e-01   -6.2883726004e-20
    1.8000000000e-01    0.0000000000e+00    5.6378512969e-20
    1.8000000000e-01    1.0000000000e-01    1.4894523473e-05
    1.8000000000e-01    2.0000000000e-01    1.6664568589e-05
    1.8000000000e-01    3.0000000000e-01    4.6819751197e-06
    1.8000000000e-01    4.0000000000e-01   -8.7003002607e-06
    1.8000000000e-01    5.0000000000e-01   -1.1058474631e-05
    1.8000000000e-01    6.0000000000e-01   -1.6710767014e-06
    1.8000000000e-01    7.0000000000e-01    8.8374882391e-06
    1.8000000000e-01    8.0000000000e-01    9.6105375049e-06
    1.8000000000e-01    9.0000000000e-01   -2.1684043450e-20
    2.0000000000e-01    0.0000000000e+00    1.6653345369e-19
    2.0000000000e-01    1.0000000000e-01   -1.8477151044e-06
    2.0000000000e-01    2.0000000000e-01   -3.7117017517e-06
    2.0000000000e-01    3.0000000000e-01   -5.4076630216e-06
    2.0000000000e-01    4.0000000000e-01   -6.5357248688e-06
    2.0000000000e-01    5.0000000000e-01   -6.6970226514e-06
    2.0000000000e-01    6.0000000000e-01   -5.7771251320e-06
    2.0000000000e-01    7.0000000000e-01   -4.0543535972e-06
    2.0000000000e-01    8.0000000000e-01   -2.0146274183e-06
    2.0000000000e-01    9.0000000000e-01   -8.9401039762e-21
    2.2000000000e-01    0.0000000000e+00   -1.1934897515e-19
    2.2000000000e-01    1.0000000000e-01   -1.3079409620e-06
    2.2000000000e-01    2.0000000000e-01   -2.1560741837e-06
    2.2000000000e-01    3.0000000000e-01   -2.5672920209e-06
    2.2000000000e-01    4.0000000000e-01   -2.9490032263e-06
    2.2000000000e-01    5.0000000000e-01   -3.5972424835e-06
    2.2000000000e-01    6.0000000000e-01   -4.2397745368e-06
    2.2000000000e-01    7.0000000000e-01   -4.1102213938e-06
    2.2000000000e-01    8.0000000000e-01   -2.6088729702e-06
    2.2000000000e-01    9.0000000000e-01    3.4360808588e-21
    2.4000000000e-01    0.0000000000e+00   -1.7053025658e-16
    2.4000000000e-01    1.0000000000e-01    1.3692184955e-02
    2.4000000000e-01    2.0000000000e-01    2.5699472358e-02
    2.4000000000e-01    3.0000000000e-01    3.4627728491e-02
    2.4000000000e-01    4.0000000000e-01    3.9425257987e-02
    2.4000000000e-01    5.0000000000e-01    3.9379719257e-02
    2.4000000000e-01    6.0000000000e-01    3.4058594900e-02
    2.4000000000e-01    7.0000000000e-01    2.4799951119e-02
    2.4000000000e-01    8.0000000000e-01    1.2998526989e-02
    2.4000000000e-01    9.0000000000e-01   -3.6844617860e-17
    2.6000000000e-01    0.0000000000e+00   -8.8817841970e-20
    2.6000000000e-01    1.0000000000e-01   -3.2948397990e-06
    2.6000000000e-01    2.0000000000e-01   -5.7358601597e-06
    2.6000000000e-01    3.0000000000e-01   -6.4229242585e-06
    2.6000000000e-01    4.0000000000e-01   -5.4353908635e-06
    2.6000000000e-01    5.0000000000e-01   -3.7383049630e-06
    2.6000000000e-01    6.0000000000e-01   -2.3181741651e-06
    2.6000000000e-01    7.0000000000e-01   -1.4666104452e-06
    2.6000000000e-01    8.0000000000e-01   -8.2093646282e-07
    2.6000000000e-01    9.0000000000e-01    0.0000000000e+00
    2.8000000000e-01    0.0000000000e+00   -8.3266726847e-21
    2.8000000000e-01    1.0000000000e-01    5.6174804489e-07
    2.8000000000e-01    2.0000000000e-01    6.8004532147e-07
    2.8000000000e-01    3.0000000000e-01    3.2522929575e-07
    2.8000000000e-01    4.0000000000e-01   -1.1991981978e-07
    2.8000000000e-01    5.0000000000e-01   -2.5458803995e-07
    2.8000000000e-01    6.0000000000e-01   -3.0186806388e-08
    2.8000000000e-01    7.0000000000e-01    2.5072639179e-07
    2.8000000000e-01    8.0000000000e-01    2.6767691075e-07
    2.8000000000e-01    9.0000000000e-01   -5.0555617474e-22
    3.0000000000e-01    0.0000000000e+00   -2.0246227042e-20
    3.0000000000e-01    1.0000000000e-01   -1.4295287417e-07
    3.0000000000e-01    2.0000000000e-01   -2.7235256023e-07
    3.0000000000e-01    3.0000000000e-01   -3.7301396492e-07
    3.0000000000e-01    4.0000000000e-01   -4.2801095529e-07
    3.0000000000e-01    5.0000000000e-01   -4.2521563139e-07
    3.0000000000e-01    6.0000000000e-01   -3.6482417242e-07
    3.0000000000e-01    7.0000000000e-01   -2.6078055258e-07
    3.0000000000e-01    8.0000000000e-01   -1.3367835954e-07
    3.0000000000e-01    9.0000000000e-01    5.7085811811e-23
    3.2000000000e-01    0.0000000000e+00    4.1583521315e-21
    3.2000000000e-01    1.0000000000e-01   -6.1999593573e-08
    3.2000000000e-01    2.0000000000e-01   -1.0994807720e-07
    3.2000000000e-01    3.0000000000e-01   -1.4195241495e-07
    3.2000000000e-01    4.0000000000e-01   -1.6524907503e-07
    3.2000000000e-01    5.0000000000e-01   -1.8383390497e-07
    3.2000000000e-01    6.0000000000e-01   -1.8888672880e-07
    3.2000000000e-01    7.0000000000e-01   -1.6288639560e-07
    3.2000000000e-01    8.0000000000e-01   -9.5999453518e-08
    3.2000000000e-01    9.0000000000e-01   -7.2745706131e-23
    3.4000000000e-01    0.0000000000e+00   -5.0932434893e-17
    3.4000000000e-01    1.0000000000e-01    5.3995247497e-04
    3.4000000000e-01    2.0000000000e-01    9.9849292279e-04
    3.4000000000e-01    3.0000000000e-01    1.3190313956e-03
    3.4000000000e-01    4.0000000000e-01    1.4675708137e-03
    3.4000000000e-01    5.0000000000e-01    1.4313685650e-03
    3.4000000000e-01    6.0000000000e-01    1.2202899260e-03
    3.4000000000e-01    7.0000000000e-01    8.7758749744e-04
    3.4000000000e-01    8.0000000000e-01    4.5507839802e-04
    3.4000000000e-01    9.0000000000e-01    0.0000000000e+00
    3.6000000000e-01    0.0000000000e+00   -3.0406610051e-21
    3.6000000000e-01    1.0000000000e-01   -9.0279739552e-08
    3.6000000000e-01    2.0000000000e-01   -1.5435484835e-07
    3.6000000000e-01    3.0000000000e-01   -1.7480676781e-07
    3.6000000000e-01    4.0000000000e-01   -1.5487516746e-07
    3.6000000000e-01    5.0000000000e-01   -1.1488714598e-07
    3.6000000000e-01    6.0000000000e-01   -7.5941708949e-08
    3.6000000000e-01    7.0000000000e-01   -4.6614183533e-08
    3.6000000000e-01    8.0000000000e-01   -2.3204377195e-08
    3.6000000000e-01    9.0000000000e-01   -2.6554270010e-24
    3.8000000000e-01    0.0000000000e+00    4.2656656557e-22
    3.8000000000e-01    1.0000000000e-01    9.7945709327e-09
    3.8000000000e-01    2.0000000000e-01    1.2243721851e-08
    3.8000000000e-01    3.0000000000e-01    6.9065850173e-09
    3.8000000000e-01    4.0000000000e-01   -1.9503149754e-10
    3.8000000000e-01    5.0000000000e-01   -2.8260373301e-09
    3.8000000000e-01    6.0000000000e-01   -1.2119849805e-10
    3.8000000000e-01    7.0000000000e-01    3.5777431289e-09
    3.8000000000e-01    8.0000000000e-01    3.7081827677e-09
    3.8000000000e-01    9.0000000000e-01   -9.0909633180e-25
    4.0000000000e-01    0.0000000000e+00    3.7267040597e-22
    4.0000000000e-01    1.0000000000e-01   -2.6840606818e-09
    4.0000000000e-01    2.0000000000e-01   -5.0095099139e-09
    4.0000000000e-01    3.0000000000e-01   -6.6939818142e-09
    4.0000000000e-01    4.0000000000e-01   -7.4989749450e-09
    4.0000000000e-01    5.0000000000e-01   -7.3011195545e-09
    4.0000000000e-01    6.0000000000e-01   -6.1713870260e-09
    4.0000000000e-01    7.0000000000e-01   -4.3684406028e-09
    4.0000000000e-01    8.0000000000e-01   -2.2255396368e-09
    4.0000000000e-01    9.0000000000e-01   -3.2284564380e-24
    4.2000000000e-01    0.0000000000e+00    1.5033524556e-22
    4.2000000000e-01    1.0000000000e-01   -9.0001373011e-10
    4.2000000000e-01    2.0000000000e-01   -1.6039568718e-09
    4.2000000000e-01    3.0000000000e-01   -2.0754279515e-09
    4.2000000000e-01    4.0000000000e-01   -2.3838926723e-09
    4.2000000000e-01    5.0000000000e-01   -2.5634392282e-09
    4.2000000000e-01    6.0000000000e-01   -2.5187078206e-09
    4.2000000000e-01    7.0000000000e-01   -2.0829030892e-09
    4.2000000000e-01    8.0000000000e-01   -1.1906622189e-09
    4.2000000000e-01    9.0000000000e-01    0.0000000000e+00
    4.4000000000e-01    0.0000000000e+00    1.2886462936e-18
    4.4000000000e-01    1.0000000000e-01    6.4407912274e-06
    4.4000000000e-01    2.0000000000e-01    1.1748658003e-05
    4.4000000000e-01    3.0000000000e-01    1.5268030523e-05
    4.4000000000e-01    4.0000000000e-01    1.6689283186e-05
    4.4000000000e-01    5.0000000000e-01    1.5990076604e-05
    4.4000000000e-01    6.0000000000e-01    1.3418902393e-05
    4.4000000000e-01    7.0000000000e-01    9.5115485049e-06
    4.4000000000e-01    8.0000000000e-01    4.8705946740e-06
    4.4000000000e-01    9.0000000000e-01    5.4687739708e-21
    4.6000000000e-01    0.0000000000e+00    3.8673254136e-24
    4.6000000000e-01    1.0000000000e-01   -8.5197909546e-10
    4.6000000000e-01    2.0000000000e-01   -1.4389303841e-09
    4.6000000000e-01    3.0000000000e-01   -1.6204247876e-09
    4.6000000000e-01    4.0000000000e-01   -1.4401161843e-09
    4.6000000000e-01    5.0000000000e-01   -1.0784636454e-09
    4.6000000000e-01    6.0000000000e-01   -7.1675167788e-10
    4.6000000000e-01    7.0000000000e-01   -4.3353980390e-10
    4.6000000000e-01    8.0000000000e-01   -2.0870552455e-10
    4.6000000000e-01    9.0000000000e-01    9.2220597644e-26
    4.8000000000e-01    0.0000000000e+00   -2.5017215855e-24
    4.8000000000e-01    1.0000000000e-01    7.0698566955e-11
    4.8000000000e-01    2.0000000000e-01    8.8957655584e-11
    4.8000000000e-01    3.0000000000e-01    5.2853114380e-11
    4.8000000000e-01    4.0000000000e-01    4.2270611741e-12
    4.8000000000e-01    5.0000000000e-01   -1.5093871643e-11
    4.8000000000e-01    6.0000000000e-01    3.5223409573e-13
    4.8000000000e-01    7.0000000000e-01    2.2508046182e-11
    4.8000000000e-01    8.0000000000e-01    2.2808584928e-11
    4.8000000000e-01    9.0000000000e-01   -1.8291499599e-26
    5.0000000000e-01    0.0000000000e+00   -9.6135129626e-25
    5.0000000000e-01    1.0000000000e-01   -1.7988587368e-11
    5.0000000000e-01    2.0000000000e-01   -3.3075143741e-11
    5.0000000000e-01    3.0000000000e-01   -4.3443071642e-11
    5.0000000000e-01    4.0000000000e-01   -4.7831176834e-11
    5.0000000000e-01    5.0000000000e-01   -4.5821342699e-11
    5.0000000000e-01    6.0000000000e-01   -3.8177592946e-11
    5.0000000000e-01    7.0000000000e-01   -2.6689881098e-11
    5.0000000000e-01    8.0000000000e-01   -1.3455863650e-11
    5.0000000000e-01    9.0000000000e-01    1.5343134392e-26
    5.2000000000e-01    0.0000000000e+00    1.7577981334e-24
    5.2000000000e-01    1.0000000000e-01   -5.0058670444e-12
    5.2000000000e-01    2.0000000000e-01   -8.8633040716e-12
    5.2000000000e-01    3.0000000000e-01   -1.1371771047e-11
    5.2000000000e-01    4.0000000000e-01   -1.2879349163e-11
    5.2000000000e-01    5.0000000000e-01   -1.3562209876e-11
    5.2000000000e-01    6.0000000000e-01   -1.3001781509e-11
    5.2000000000e-01    7.0000000000e-01   -1.0502243883e-11
    5.2000000000e-01    8.0000000000e-01   -5.8916107444e-12
    5.2000000000e-01    9.0000000000e-01    1.9167303529e-26
    5.4000000000e-01    0.0000000000e+00    2.4529256807e-20
    5.4000000000e-01    1.0000000000e-01    3.0389012260e-08
    5.4000000000e-01    2.0000000000e-01    5.4746580635e-08
    5.4000000000e-01    3.0000000000e-01    7.0149894666e-08
    5.4000000000e-01    4.0000000000e-01    7.5554060805e-08
    5.4000000000e-01    5.0000000000e-01    7.1321691164e-08
    5.4000000000e-01    6.0000000000e-01    5.9015977591e-08
    5.4000000000e-01    7.0000000000e-01    4.1276186898e-08
    5.4000000000e-01    8.0000000000e-01    2.0884094195e-08
    5.4000000000e-01    9.0000000000e-01   -1.1961461460e-23
    5.6000000000e-01    0.0000000000e+00   -1.8467925840e-24
    5.6000000000e-01    1.0000000000e-01   -3.3732604145e-12
    5.6000000000e-01    2.0000000000e-01   -5.6330310096e-12
    5.6000000000e-01    3.0000000000e-01   -6.2842318705e-12
    5.6000000000e-01    4.0000000000e-01   -5.5500586529e-12
    5.6000000000e-01    5.0000000000e-01   -4.1395569950e-12
    5.6000000000e-01    6.0000000000e-01   -2.7357764128e-12
    5.6000000000e-01    7.0000000000e-01   -1.6340274603e-12
    5.6000000000e-01    8.0000000000e-01   -7.7196975647e-13
    5.6000000000e-01    9.0000000000e-01    1.0094700294e-28
    5.8000000000e-01    0.0000000000e+00    2.4555275612e-26
    5.8000000000e-01    1.0000000000e-01    2.3175170217e-13
    5.8000000000e-01    2.0000000000e-01    2.9080480372e-13
    5.8000000000e-01    3.0000000000e-01    1.7560699094e-13
    5.8000000000e-01    4.0000000000e-01    2.1700799068e-14
    5.8000000000e-01    5.0000000000e-01   -4.0828658788e-14
    5.8000000000e-01    6.0000000000e-01    2.7693348366e-15
    5.8000000000e-01    7.0000000000e-01    6.6551762040e-14
    5.8000000000e-01    8.0000000000e-01    6.6326615869e-14
    5.8000000000e-01    9.0000000000e-01    0.0000000000e+00
    6.0000000000e-01    0.0000000000e+00   -3.7041132471e-27
    6.0000000000e-01    1.0000000000e-01   -5.3169078977e-14
    6.0000000000e-01    2.0000000000e-01   -9.6541810057e-14
    6.0000000000e-01    3.0000000000e-01   -1.2505352282e-13
    6.0000000000e-01    4.0000000000e-01   -1.3575903680e-13
    6.0000000000e-01    5.0000000000e-01   -1.2829423368e-13
    6.0000000000e-01    6.0000000000e-01   -1.0553019089e-13
    6.0000000000e-01    7.0000000000e-01   -7.2905316910e-14
    6.0000000000e-01    8.0000000000e-01   -3.6366959441e-14
    6.0000000000e-01    9.0000000000e-01    7.5943339184e-29
    6.2000000000e-01    0.0000000000e+00    1.1554173910e-26
    6.2000000000e-01    1.0000000000e-01   -1.2746747393e-14
    6.2000000000e-01    2.0000000000e-01   -2.2370526454e-14
    6.2000000000e-01    3.0000000000e-01   -2.8412987064e-14
    6.2000000000e-01    4.0000000000e-01   -3.1774788113e-14
    6.2000000000e-01    5.0000000000e-01   -3.2940144027e-14
    6.2000000000e-01    6.0000000000e-01   -3.1040849834e-14
    6.2000000000e-01    7.0000000000e-01   -2.4660536333e-14
    6.2000000000e-01    8.0000000000e-01   -1.3639654124e-14
    6.2000000000e-01    9.0000000000e-01    1.7138638873e-29
    6.4000000000e-01    0.0000000000e+00   -1.3143624464e-22
    6.4000000000e-01    1.0000000000e-01    6.7391853933e-11
    6.4000000000e-01    2.0000000000e-01    1.2005229731e-10
    6.4000000000e-01    3.0000000000e-01    1.5195140919e-10
    6.4000000000e-01    4.0000000000e-01    1.6159457988e-10
    6.4000000000e-01    5.0000000000e-01    1.5061466735e-10
    6.4000000000e-01    6.0000000000e-01    1.2309809441e-10
    6.4000000000e-01    7.0000000000e-01    8.5076101853e-11
    6.4000000000e-01    8.0000000000e-01    4.2574993777e-11
    6.4000000000e-01    9.0000000000e-01    6.1333484126e-27
    6.6000000000e-01    0.0000000000e+00    2.3796934571e-26
    6.6000000000e-01    1.0000000000e-01   -6.4937124558e-15
    6.6000000000e-01    2.0000000000e-01   -1.0730897888e-14
    6.6000000000e-01    3.0000000000e-01   -1.1854153066e-14
    6.6000000000e-01    4.0000000000e-01   -1.0380931586e-14
    6.6000000000e-01    5.0000000000e-01   -7.6850515851e-15
    6.6000000000e-01    6.0000000000e-01   -5.0374550211e-15
    6.6000000000e-01    7.0000000000e-01   -2.9749398793e-15
    6.6000000000e-01    8.0000000000e-01   -1.3861503685e-15
    6.6000000000e-01    9.0000000000e-01    5.7700220687e-30
    6.8000000000e-01    0.0000000000e+00    1.8107395396e-29
    6.8000000000e-01    1.0000000000e-01    3.8509695371e-16
    6.8000000000e-01    2.0000000000e-01    4.8034155845e-16
    6.8000000000e-01    3.0000000000e-01    2.9101462331e-16
    6.8000000000e-01    4.0000000000e-01    4.1891791234e-17
    6.8000000000e-01    5.0000000000e-01   -5.9706455669e-17
    6.8000000000e-01    6.0000000000e-01    5.6881400904e-18
    6.8000000000e-01    7.0000000000e-01    1.0178870425e-16
    6.8000000000e-01    8.0000000000e-01    1.0012123610e-16
    6.8000000000e-01    9.0000000000e-01    5.4157753980e-31
    7.0000000000e-01    0.0000000000e+00   -2.0347918081e-29
    7.0000000000e-01    1.0000000000e-01   -7.9635956791e-17
    7.0000000000e-01    2.0000000000e-01   -1.4302315576e-16
    7.0000000000e-01    3.0000000000e-01   -1.8308301728e-16
    7.0000000000e-01    4.0000000000e-01   -1.9639000820e-16
    7.0000000000e-01    5.0000000000e-01   -1.8342252782e-16
    7.0000000000e-01    6.0000000000e-01   -1.4917618641e-16
    7.0000000000e-01    7.0000000000e-01   -1.0195159297e-16
    7.0000000000e-01    8.0000000000e-01   -5.0351258126e-17
    7.0000000000e-01    9.0000000000e-01    4.4256402804e-31
    7.2000000000e-01    0.0000000000e+00    1.4038017784e-29
    7.2000000000e-01    1.0000000000e-01   -1.6850059987e-17
    7.2000000000e-01    2.0000000000e-01   -2.9306185642e-17
    7.2000000000e-01    3.0000000000e-01   -3.6856715179e-17
    7.2000000000e-01    4.0000000000e-01   -4.0758210353e-17
    7.2000000000e-01    5.0000000000e-01   -4.1719292543e-17
    7.2000000000e-01    6.0000000000e-01   -3.8787878675e-17
    7.2000000000e-01    7.0000000000e-01   -3.0413936137e-17
    7.2000000000e-01    8.0000000000e-01   -1.6626581269e-17
    7.2000000000e-01    9.0000000000e-01    7.6084899479e-32
    7.4000000000e-01    0.0000000000e+00   -6.3183346482e-26
    7.4000000000e-01    1.0000000000e-01    7.9132880205e-14
    7.4000000000e-01    2.0000000000e-01    1.3954848460e-13
    7.4000000000e-01    3.0000000000e-01    1.7472666107e-13
    7.4000000000e-01    4.0000000000e-01    1.8376987410e-13
    7.4000000000e-01    5.0000000000e-01    1.6939459339e-13
    7.4000000000e-01    6.0000000000e-01    1.3694873480e-13
    7.4000000000e-01    7.0000000000e-01    9.3650686365e-14
    7.4000000000e-01    8.0000000000e-01    4.6401936484e-14
    7.4000000000e-01    9.0000000000e-01    2.9302549225e-29
    7.6000000000e-01    0.0000000000e+00   -2.5709349337e-30
    7.6000000000e-01    1.0000000000e-01   -6.7684497903e-18
    7.6000000000e-01    2.0000000000e-01   -1.1078054276e-17
    7.6000000000e-01    3.0000000000e-01   -1.2123159252e-17
    7.6000000000e-01    4.0000000000e-01   -1.0524461627e-17
    7.6000000000e-01    5.0000000000e-01   -7.7277485140e-18
    7.6000000000e-01    6.0000000000e-01   -5.0222053377e-18
    7.6000000000e-01    7.0000000000e-01   -2.9359416583e-18
    7.6000000000e-01    8.0000000000e-01   -1.3525511471e-18
    7.6000000000e-01    9.0000000000e-01   -8.8730031605e-33
    7.8000000000e-01    0.0000000000e+00   -5.9913024205e-32
    7.8000000000e-01    1.0000000000e-01    3.5546553533e-19
    7.8000000000e-01    2.0000000000e-01    4.4029172216e-19
    7.8000000000e-01    3.0000000000e-01    2.6623016384e-19
    7.8000000000e-01    4.0000000000e-01    4.1105148798e-20
    7.8000000000e-01    5.0000000000e-01   -5.0347687773e-20
    7.8000000000e-01    6.0000000000e-01    5.6342201493e-21
    7.8000000000e-01    7.0000000000e-01    8.7633616297e-20
    7.8000000000e-01    8.0000000000e-01    8.5260034502e-20
    7.8000000000e-01    9.0000000000e-01    7.3826700857e-34
    8.0000000000e-01    0.0000000000e+00   -3.0077720326e-30
    8.0000000000e-01    1.0000000000e-01   -6.6708386554e-20
    8.0000000000e-01    2.0000000000e-01   -1.1864349591e-19
    8.0000000000e-01    3.0000000000e-01   -1.5031306852e-19
    8.0000000000e-01    4.0000000000e-01   -1.5956360003e-19
    8.0000000000e-01    5.0000000000e-01   -1.4749793325e-19
    8.0000000000e-01    6.0000000000e-01   -1.1875676364e-19
    8.0000000000e-01    7.0000000000e-01   -8.0375502445e-20
    8.0000000000e-01    8.0000000000e-01   -3.9332960496e-20
    8.0000000000e-01    9.0000000000e-01    0.0000000000e+00
    8.2000000000e-01    0.0000000000e+00   -2.0975434962e-33
    8.2000000000e-01    1.0000000000e-01   -1.2673319338e-20
    8.2000000000e-01    2.0000000000e-01   -2.1852890529e-20
    8.2000000000e-01    3.0000000000e-01   -2.7231934124e-20
    8.2000000000e-01    4.0000000000e-01   -2.9816069112e-20
    8.2000000000e-01    5.0000000000e-01   -3.0191138972e-20
    8.2000000000e-01    6.0000000000e-01   -2.7756759816e-20
    8.2000000000e-01    7.0000000000e-01   -2.1526799774e-20
    8.2000000000e-01    8.0000000000e-01   -1.1650362691e-20
    8.2000000000e-01    9.0000000000e-01    0.0000000000e+00
    8.4000000000e-01    0.0000000000e+00   -1.0198686191e-28
    8.4000000000e-01    1.0000000000e-01    5.3668256333e-17
    8.4000000000e-01    2.0000000000e-01    9.3780153479e-17
    8.4000000000e-01    3.0000000000e-01    1.1629470365e-16
    8.4000000000e-01    4.0000000000e-01    1.2112141324e-16
    8.4000000000e-01    5.0000000000e-01    1.1055731052e-16
    8.4000000000e-01    6.0000000000e-01    8.8520319403e-17
    8.4000000000e-01    7.0000000000e-01    5.9961922199e-17
    8.4000000000e-01    8.0000000000e-01    2.9442906141e-17
    8.4000000000e-01    9.0000000000e-01    0.0000000000e+00
    8.6000000000e-01    0.0000000000e+00   -7.3484163238e-33
    8.6000000000e-01    1.0000000000e-01   -4.1403456006e-21
    8.6000000000e-01    2.0000000000e-01   -6.7173726841e-21
    8.6000000000e-01    3.0000000000e-01   -7.2871771297e-21
    8.6000000000e-01    4.0000000000e-01   -6.2736163640e-21
    8.6000000000e-01    5.0000000000e-01   -4.5695558135e-21
    8.6000000000e-01    6.0000000000e-01   -2.9452616623e-21
    8.6000000000e-01    7.0000000000e-01   -1.7060621944e-21
    8.6000000000e-01    8.0000000000e-01   -7.7832109152e-22
    8.6000000000e-01    9.0000000000e-01    0.0000000000e+00
    8.8000000000e-01    0.0000000000e+00   -2.6007174022e-34
    8.8000000000e-01    1.0000000000e-01    1.9595860285e-22
    8.8000000000e-01    2.0000000000e-01    2.4099349429e-22
    8.8000000000e-01    3.0000000000e-01    1.4511477071e-22
    8.8000000000e-01    4.0000000000e-01    2.3226484445e-23
    8.8000000000e-01    5.0000000000e-01   -2.5932235751e-23
    8.8000000000e-01    6.0000000000e-01    3.1656128506e-24
    8.8000000000e-01    7.0000000000e-01    4.5484084405e-23
    8.8000000000e-01    8.0000000000e-01    4.3835335659e-23
    8.8000000000e-01    9.0000000000e-01    0.0000000000e+00
    9.0000000000e-01    0.0000000000e+00    0.0000000000e+00
    9.0000000000e-01    1.0000000000e-01    0.0000000000e+00
    9.0000000000e-01    2.0000000000e-01    0.0000000000e+00
    9.0000000000e-01    3.0000000000e-01    0.0000000000e+00
    9.0000000000e-01    4.0000000000e-01    0.0000000000e+00
    9.0000000000e-01    5.0000000000e-01    0.0000000000e+00
    9.0000000000e-01    6.0000000000e-01    0.0000000000e+00
    9.0000000000e-01    7.0000000000e-01    0.0000000000e+00
    9.0000000000e-01    8.0000000000e-01    0.0000000000e+00
    9.0000000000e-01    9.0000000000e-01    0.0000000000e+00
    9.2000000000e-01    0.0000000000e+00    0.0000000000e+00
    9.2000000000e-01    1.0000000000e-01    0.0000000000e+00
    9.2000000000e-01    2.0000000000e-01    0.0000000000e+00
    9.2000000000e-01    3.0000000000e-01    0.0000000000e+00
    9.2000000000e-01    4.0000000000e-01    0.0000000000e+00
    9.2000000000e-01    5.0000000000e-01    0.0000000000e+00
    9.2000000000e-01    6.0000000000e-01    0.0000000000e+00
    9.2000000000e-01    7.0000000000e-01    0.0000000000e+00
    9.2000000000e-01    8.0000000000e-01    0.0000000000e+00
    9.2000000000e-01    9.0000000000e-01    0.0000000000e+00
    9.4000000000e-01    0.0000000000e+00    0.0000000000e+00
    9.4000000000e-01    1.0000000000e-01    0.0000000000e+00
    9.4000000000e-01    2.0000000000e-01    0.0000000000e+00
    9.4000000000e-01    3.0000000000e-01    0.0000000000e+00
    9.4000000000e-01    4.0000000000e-01    0.0000000000e+00
    9.4000000000e-01    5.0000000000e-01    0.0000000000e+00
    9.4000000000e-01    6.0000000000e-01    0.0000000000e+00
    9.4000000000e-01    7.0000000000e-01    0.0000000000e+00
    9.4000000000e-01    8.0000000000e-01    0.0000000000e+00
    9.4000000000e-01    9.0000000000e-01    0.0000000000e+00
    9.6000000000e-01    0.0000000000e+00    0.0000000000e+00
    9.6000000000e-01    1.0000000000e-01    0.0000000000e+00
    9.6000000000e-01    2.0000000000e-01    0.0000000000e+00
    9.6000000000e-01    3.0000000000e-01    0.0000000000e+00
    9.6000000000e-01    4.0000000000e-01    0.0000000000e+00
    9.6000000000e-01    5.0000000000e-01    0.0000000000e+00
    9.6000000000e-01    6.0000000000e-01    0.0000000000e+00
    9.6000000000e-01    7.0000000000e-01    0.0000000000e+00
    9.6000000000e-01    8.0000000000e-01    0.0000000000e+00
    9.6000000000e-01    9.0000000000e-01    0.0000000000e+00
    9.8000000000e-01    0.0000000000e+00    0.0000000000e+00
    9.8000000000e-01    1.0000000000e-01    0.0000000000e+00
    9.8000000000e-01    2.0000000000e-01    0.0000000000e+00
    9.8000000000e-01    3.0000000000e-01    0.0000000000e+00
    9.8000000000e-01    4.0000000000e-01    0.0000000000e+00
    9.8000000000e-01    5.0000000000e-01    0.0000000000e+00
    9.8000000000e-01    6.0000000000e-01    0.0000000000e+00
    9.8000000000e-01    7.0000000000e-01    0.0000000000e+00
    9.8000000000e-01    8.0000000000e-01    0.0000000000e+00
    9.8000000000e-01    9.0000000000e-01    0.0000000000e+00
