            0   0.000131388   0.000153014   4.19865e-05  -0.000114247  -0.000181149  -8.78397e-05   0.000100328   0.000219243   0.000142706  -8.88012e-05  -0.000273702  -0.000215295    7.9097e-05   0.000357925   0.000323807  -7.08138e-05  -0.000505403  -0.000516745   6.36593e-05   0.000830015   0.000987063  -5.74157e-05    -0.0021289   -0.00424023       1.00013   -0.00436646   -0.00225006  -4.70368e-05    0.00111904   0.000946671   4.26729e-05  -0.000655285  -0.000618035  -3.87457e-05   0.000469902   0.000466942   3.51903e-05  -0.000370181  -0.000379459  -3.19543e-05   0.000307941   0.000322047   2.89939e-05  -0.000265434  -0.000281271  -2.62731e-05   0.000234591   0.000250691   2.37616e-05
  3.06422e-16   -0.00887051    -0.0168462    -0.0231197    -0.0270518    -0.0282375    -0.0265497     -0.022152    -0.0154769    -0.0071738    0.00196193     0.0110661     0.0192821     0.0258344     0.0301011     0.0316797      0.030433     0.0264993      0.020263     0.0122976    0.00330405   -0.00593743    -0.0146041    -0.0218761    -0.0270072     -0.029416    -0.0689793     -0.102506     -0.127585      -0.14251     -0.146361     -0.139033     -0.121236    -0.0944429     -0.060758    -0.0227208     0.0169306     0.0554895     0.0904727      0.119764       0.14172      0.155247      0.159842      0.155581      0.143065      0.123308     0.0976189     0.0674786     0.0344343   1.42109e-16
 -1.39266e-16   -0.00476692   -0.00903722    -0.0123951    -0.0145446    -0.0153325     -0.014755    -0.0129473    -0.0101595   -0.00672259   -0.00300848   0.000609741    0.00379422    0.00627162    0.00785351    0.00844635    0.00805089    0.00675118    0.00469519    0.00206962  -0.000927946   -0.00411731   -0.00736364     -0.010606    -0.0138889    -0.0173981    -0.0215073    -0.0252331    -0.0278627    -0.0289528    -0.0283103    -0.0259596    -0.0221015    -0.0170666    -0.0112657   -0.00514213   0.000872302    0.00639274     0.0111068     0.0147894     0.0173084      0.018622     0.0187699     0.0178594     0.0160473     0.0135209     0.0104781    0.00710889    0.00357693  -5.96725e-18
 -4.16596e-18  -0.000347705  -0.000651537  -0.000880306   -0.00101598   -0.00105323  -0.000998022  -0.000865351  -0.000676413   -0.00045558  -0.000227483  -1.45008e-05   0.000165152   0.000298638    0.00037899   0.000404938   0.000380178   0.000312219   0.000210973   8.72701e-05  -4.85495e-05  -0.000187856  -0.000324688  -0.000456369  -0.000583523  -0.000708697  -0.000831258  -0.000931883  -0.000991807  -0.000999411  -0.000951408  -0.000851807  -0.000710052  -0.000538975  -0.000352853  -0.000165745   9.82128e-06   0.000163733   0.000288786   0.000380803   0.000438467   0.000462956   0.000457431   0.000426469   0.000375466   0.000310079   0.000235724   0.000157135   7.79329e-05   5.23507e-19
 -2.06917e-18  -6.47623e-06  -1.19759e-05  -1.59256e-05  -1.80682e-05  -1.84057e-05  -1.71425e-05  -1.46241e-05  -1.12736e-05  -7.53441e-06   -3.8196e-06    -4.753e-07   2.24291e-06   4.17985e-06   5.27852e-06    5.5682e-06   5.14588e-06   4.15377e-06   2.75591e-06    1.1164e-06  -6.18892e-07  -2.33614e-06   -3.9621e-06  -5.46662e-06  -6.85595e-06  -8.14833e-06  -9.31516e-06  -1.01882e-05   -1.0601e-05  -1.04614e-05  -9.76519e-06   -8.5813e-06  -7.02828e-06  -5.24986e-06  -3.39385e-06  -1.59577e-06   3.23609e-08   1.40834e-06   2.48162e-06   3.23176e-06   3.66443e-06     3.806e-06    3.6976e-06   3.38905e-06   2.93342e-06   2.38222e-06   1.78165e-06   1.16952e-06   5.72345e-07  -1.82658e-21
  3.16659e-20  -4.33114e-08  -7.90844e-08  -1.03658e-07  -1.15832e-07  -1.16188e-07  -1.06565e-07  -8.95609e-08  -6.80857e-08   -4.4985e-08  -2.27487e-08  -3.32236e-09   1.19849e-08   2.25063e-08   2.81553e-08   2.93163e-08   2.67088e-08   2.12439e-08    1.3889e-08   5.55339e-09  -2.99868e-09  -1.12041e-08  -1.87261e-08   -2.5447e-08  -3.14158e-08  -3.67194e-08  -4.12273e-08  -4.42989e-08  -4.53187e-08  -4.40003e-08  -4.04304e-08  -3.49894e-08  -2.82359e-08  -2.07965e-08  -1.32784e-08  -6.20581e-09   1.64828e-11    5.1189e-09   8.96437e-09   1.15333e-08    1.2901e-08   1.32117e-08    1.2653e-08   1.14317e-08   9.75396e-09   7.80951e-09   5.75995e-09   3.73083e-09   1.80399e-09   5.11865e-24
  4.45267e-22  -1.27913e-10  -2.30872e-10  -2.98771e-10  -3.29476e-10  -3.26104e-10  -2.95135e-10  -2.44808e-10  -1.83774e-10  -1.20047e-10  -6.02815e-11  -9.35939e-12   2.97264e-11   5.57658e-11   6.90597e-11   7.10516e-11   6.39226e-11    5.0199e-11   3.24103e-11   1.28207e-11  -6.75289e-12  -2.50398e-11  -4.13364e-11  -5.54516e-11  -6.75579e-11  -7.78881e-11  -8.62104e-11  -9.13326e-11  -9.21568e-11  -8.82812e-11  -8.00572e-11   -6.8393e-11   -5.4497e-11  -3.96495e-11  -2.50299e-11  -1.16056e-11  -7.57368e-14   9.14073e-12   1.58837e-11   2.02095e-11   2.23382e-11   2.25988e-11   2.13782e-11    1.9078e-11   1.60791e-11   1.27175e-11   9.26773e-12   5.93324e-12   2.83818e-12  -1.25411e-26
  -7.2521e-26  -1.91516e-13  -3.42061e-13  -4.37696e-13   -4.7713e-13  -4.66778e-13  -4.17566e-13  -3.42399e-13  -2.54166e-13  -1.64291e-13  -8.18294e-14   -1.3052e-14   3.85594e-14   7.20132e-14   8.83163e-14     8.989e-14   7.99781e-14   6.21103e-14   3.96631e-14   1.55408e-14  -8.01861e-15  -2.95246e-14   -4.8217e-14  -6.39614e-14  -7.70416e-14  -8.77922e-14  -9.60187e-14  -1.00523e-13  -1.00253e-13  -9.49407e-14  -8.51265e-14  -7.19145e-14  -5.66745e-14  -4.07915e-14  -2.54884e-14  -1.17215e-14  -1.38051e-16   8.91903e-15   1.53746e-14    1.9366e-14   2.11815e-14   2.12006e-14    1.9841e-14   1.75166e-14   1.46056e-14   1.14294e-14   8.24162e-15    5.2222e-15   2.47394e-15  -1.68451e-29
  7.49133e-29  -1.60395e-16   -2.8377e-16  -3.59483e-16  -3.87886e-16  -3.75592e-16  -3.32565e-16  -2.69937e-16  -1.98382e-16   -1.2701e-16  -6.27475e-17  -1.01307e-17   2.85803e-17   5.30671e-17   6.44944e-17   6.50111e-17   5.72744e-17    4.4041e-17   2.78517e-17   1.08187e-17  -5.48862e-18  -2.00726e-17  -3.24682e-17  -4.26467e-17  -5.08561e-17  -5.73667e-17   -6.2098e-17  -6.43467e-17  -6.35259e-17  -5.95589e-17  -5.28741e-17  -4.42301e-17  -3.45189e-17   -2.4608e-17  -1.52348e-17  -6.95058e-18  -1.04163e-19     5.146e-18   8.80177e-18   1.09864e-17    1.1904e-17   1.18021e-17   1.09405e-17    9.5672e-18   7.90178e-18   6.12524e-18   4.37561e-18   2.74713e-18   1.29005e-18  -1.15733e-35
  -2.2944e-32  -8.08779e-20   -1.4186e-19  -1.78099e-19  -1.90424e-19  -1.82707e-19  -1.60303e-19  -1.28937e-19  -9.39108e-20  -5.96032e-20  -2.92177e-20  -4.74045e-21   1.29544e-20   2.39039e-20     2.881e-20   2.87881e-20   2.51385e-20   1.91597e-20   1.20112e-20   4.62868e-21  -2.31555e-21  -8.41309e-21  -1.34918e-20  -1.75655e-20  -2.07609e-20  -2.32086e-20   -2.4895e-20  -2.55636e-20  -2.50116e-20  -2.32416e-20  -2.04512e-20  -1.69581e-20  -1.31199e-20  -9.27282e-21  -5.69291e-21  -2.57782e-21  -4.39371e-23   1.86574e-21   3.16769e-21    3.9214e-21   4.21312e-21   4.14159e-21   3.80657e-21   3.30045e-21   2.70279e-21   2.07742e-21   1.47157e-21   9.16252e-22   4.26848e-22             0
  1.15173e-34  -2.59961e-23  -4.52397e-23  -5.63354e-23  -5.97402e-23  -5.68477e-23  -4.94671e-23  -3.94627e-23  -2.85099e-23  -1.79515e-23  -8.73571e-24  -1.41887e-24   3.78781e-24   6.94585e-24   8.30744e-24   8.23543e-24   7.13396e-24   5.39384e-24   3.35473e-24   1.28335e-24  -6.34437e-25  -2.29071e-24  -3.64493e-24   -4.7078e-24  -5.51964e-24  -6.12065e-24  -6.51207e-24  -6.63282e-24  -6.43741e-24  -5.93406e-24  -5.18014e-24  -4.26143e-24  -3.27104e-24  -2.29393e-24  -1.39761e-24   -6.2841e-25  -1.15714e-26    4.4609e-25   7.52141e-25   9.24101e-25   9.85247e-25   9.61066e-25   8.76515e-25    7.5412e-25   6.12813e-25   4.67413e-25   3.28577e-25   2.03044e-25   9.39011e-26             0
  6.16899e-38  -5.57456e-27  -9.63126e-27  -1.19047e-26  -1.25299e-26   -1.1834e-26  -1.02207e-26  -8.09294e-27  -5.80359e-27  -3.62778e-27  -1.75334e-27  -2.84485e-28   7.45909e-28   1.35951e-27   1.61454e-27   1.58896e-27   1.36641e-27   1.02559e-27   6.33274e-28    2.4062e-28  -1.17743e-28  -4.22595e-28  -6.67633e-28   -8.5607e-28  -9.96383e-28  -1.09678e-27  -1.15833e-27  -1.17115e-27  -1.12834e-27  -1.03256e-27  -8.94856e-28  -7.30851e-28   -5.5698e-28  -3.87826e-28  -2.34638e-28  -1.04809e-28   -2.0281e-30   7.31491e-29   1.22536e-28    1.4951e-28   1.58286e-28   1.53315e-28   1.38842e-28   1.18614e-28   9.57112e-29   7.24909e-29   5.06037e-29   3.10547e-29   1.42653e-29             0
 -4.22443e-42  -8.27729e-31  -1.42058e-30  -1.74395e-30  -1.82298e-30  -1.70993e-30   -1.4667e-30  -1.15344e-30  -8.21541e-31  -5.10105e-31  -2.44967e-31  -3.96582e-32   1.02494e-31   1.85723e-31   2.19121e-31   2.14212e-31   1.82975e-31   1.36417e-31   8.36752e-32   3.15934e-32  -1.53219e-32   -5.4681e-32  -8.58202e-32  -1.09311e-31  -1.26377e-31  -1.38177e-31  -1.44949e-31  -1.45567e-31  -1.39309e-31  -1.26634e-31  -1.09018e-31  -8.84491e-32  -6.69633e-32  -4.63218e-32  -2.78443e-32  -1.23613e-32  -2.47285e-34   8.49795e-33    1.4149e-32   1.71534e-32    1.8043e-32   1.73631e-32   1.56222e-32   1.32597e-32   1.06303e-32   7.99939e-33   5.54829e-33   3.38322e-33   1.54444e-33             0
  2.07168e-45  -8.77762e-35  -1.49715e-34   -1.8264e-34  -1.89711e-34  -1.76821e-34  -1.50711e-34  -1.17775e-34  -8.33599e-35  -5.14387e-35  -2.45551e-35   -3.9637e-36   1.01227e-35   1.82411e-35   2.13907e-35   2.07824e-35   1.76419e-35   1.30716e-35   7.96857e-36   2.99105e-36  -1.43909e-36  -5.10822e-36  -7.96844e-36  -1.00871e-35    -1.159e-35  -1.25937e-35  -1.31289e-35  -1.31033e-35  -1.24625e-35   -1.1259e-35   -9.6333e-36    -7.768e-36  -5.84522e-36  -4.01895e-36  -2.40136e-36  -1.05994e-36  -2.16956e-38   7.18802e-37   1.18998e-36    1.4341e-36   1.49945e-36   1.43429e-36   1.28274e-36   1.08223e-36   8.62429e-37    6.4511e-37   4.44779e-37   2.69614e-37   1.22366e-37             0
   1.2015e-48   -6.8238e-39  -1.15721e-38  -1.40346e-38  -1.44924e-38  -1.34285e-38  -1.13785e-38  -8.83982e-39  -6.22033e-39  -3.81623e-39  -1.81156e-39  -2.91463e-40    7.3689e-40   1.32088e-39   1.54016e-39   1.48778e-39   1.25568e-39   9.25033e-40   5.60689e-40   2.09301e-40  -9.99842e-41  -3.53094e-40  -5.47681e-40  -6.89337e-40  -7.87497e-40  -8.50782e-40  -8.81828e-40  -8.75048e-40   -8.2749e-40  -7.43307e-40   -6.3236e-40   -5.0702e-40   -3.7936e-40  -2.59364e-40  -1.54107e-40  -6.76544e-41  -1.40726e-42   4.53128e-41   7.46141e-41   8.94232e-41   9.29766e-41   8.84397e-41    7.8653e-41   6.59883e-41   5.22929e-41   3.88984e-41   2.66704e-41   1.60778e-41   7.25745e-42             0
 -4.94127e-53  -3.97698e-43  -6.70807e-43  -8.09115e-43  -8.30938e-43  -7.65724e-43   -6.4528e-43  -4.98577e-43  -3.48928e-43  -2.12917e-43  -1.00541e-43  -1.61197e-44    4.0401e-44    7.2057e-44   8.35732e-44   8.02972e-44   6.74064e-44   4.93901e-44   2.97769e-44    1.1058e-44  -5.24832e-45  -1.84445e-44  -2.84576e-44  -3.56268e-44  -4.04821e-44  -4.35008e-44  -4.48461e-44  -4.42628e-44  -4.16334e-44  -3.71985e-44  -3.14779e-44  -2.51048e-44  -1.86844e-44   -1.2707e-44  -7.51072e-45  -3.28051e-45  -6.90201e-47   2.17216e-45   3.55874e-45   4.24294e-45   4.38852e-45   4.15257e-45   3.67376e-45   3.06612e-45   2.41711e-45   1.78863e-45      1.22e-45   7.31662e-46   3.28588e-46             0
  1.73736e-57   -1.7716e-47  -2.97311e-47  -3.56778e-47  -3.64523e-47  -3.34193e-47  -2.80184e-47  -2.15378e-47  -1.49964e-47  -9.10456e-48  -4.27795e-48  -6.83445e-49   1.69984e-48   3.01735e-48   3.48211e-48   3.32877e-48   2.78027e-48    2.0269e-48   1.21588e-48   4.49333e-49  -2.11997e-49  -7.41599e-49   -1.1385e-48  -1.41818e-48  -1.60336e-48  -1.71427e-48  -1.75839e-48   -1.7268e-48  -1.61608e-48  -1.43672e-48  -1.20971e-48  -9.59985e-49  -7.10929e-49  -4.81101e-49  -2.82967e-49  -1.23001e-49  -2.60893e-51   8.05834e-50   1.31394e-49   1.55891e-49    1.6045e-49   1.51078e-49   1.33002e-49    1.1046e-49   8.66523e-50   6.38082e-50   4.33104e-50   2.58483e-50   1.15528e-50             0
  5.60071e-63    -6.135e-52  -1.02468e-51  -1.22372e-51  -1.24426e-51  -1.13523e-51  -9.47182e-52  -7.24601e-52  -5.02109e-52  -3.03386e-52  -1.41885e-52  -2.25866e-53   5.57936e-53   9.85909e-53   1.13241e-52   1.07741e-52   8.95607e-53   6.49828e-53   3.87973e-53   1.42716e-53  -6.69659e-54  -2.33228e-53  -3.56372e-53  -4.41823e-53  -4.97156e-53   -5.2903e-53   -5.4008e-53  -5.27871e-53  -4.91695e-53  -4.35067e-53  -3.64603e-53  -2.87982e-53  -2.12271e-53  -1.42979e-53  -8.37056e-54  -3.62202e-54  -7.72665e-56   2.34955e-54   3.81374e-54   4.50395e-54   4.61423e-54   4.32462e-54    3.7896e-54   3.13276e-54   2.44621e-54   1.79302e-54   1.21144e-54   7.19694e-55   3.20209e-55             0
 -5.16559e-67  -1.67641e-56  -2.78736e-56  -3.31368e-56  -3.35397e-56  -3.04616e-56  -2.53003e-56  -1.92671e-56  -1.32906e-56  -7.99435e-57  -3.72216e-57  -5.90432e-58   1.44952e-57   2.55038e-57    2.9163e-57   2.76222e-57   2.28583e-57    1.6511e-57   9.81376e-58   3.59424e-58  -1.67794e-58  -5.81943e-58  -8.85264e-58  -1.09264e-57    -1.224e-57  -1.29666e-57  -1.31782e-57  -1.28229e-57  -1.18909e-57  -1.04747e-57  -8.73928e-58  -6.87214e-58  -5.04307e-58  -3.38188e-58  -1.97121e-58  -8.49287e-59  -1.81896e-60   5.45827e-59   8.82178e-59   1.03729e-58   1.05805e-58   9.87303e-59   8.61376e-59   7.08965e-59   5.51179e-59   4.02242e-59   2.70589e-59   1.60056e-59   7.09071e-60             0
  2.26262e-70  -3.66281e-61  -6.06415e-61  -7.17824e-61  -7.23423e-61  -6.54202e-61  -5.41018e-61  -4.10235e-61  -2.81771e-61  -1.68764e-61  -7.82457e-62  -1.23686e-62   3.01945e-62   5.29087e-62   6.02444e-62   5.68191e-62   4.68199e-62   3.36755e-62   1.99312e-62   7.26944e-63  -3.37756e-63  -1.16672e-62  -1.76738e-62  -2.17219e-62  -2.42304e-62  -2.55602e-62  -2.58676e-62  -2.50637e-62  -2.31441e-62  -2.03017e-62   -1.6867e-62  -1.32077e-62  -9.65179e-63  -6.44544e-63  -3.74125e-63   -1.6053e-63  -3.44736e-65   1.02272e-63   1.64621e-63   1.92767e-63   1.95808e-63   1.81958e-63   1.58091e-63    1.2958e-63   1.00324e-63    7.2912e-64   4.88458e-64   2.87739e-64   1.26953e-64             0
 -1.40982e-74  -6.47536e-66  -1.06772e-65  -1.25871e-65  -1.26335e-65  -1.13779e-65    -9.371e-66  -7.07672e-66  -4.84089e-66  -2.88765e-66  -1.33347e-66   -2.1007e-67   5.10178e-67   8.90468e-67   1.00986e-66   9.48596e-67   7.78503e-67   5.57685e-67   3.28746e-67   1.19429e-67  -5.52424e-68  -1.90096e-67  -2.86811e-67  -3.51089e-67  -3.90061e-67  -4.09816e-67  -4.13078e-67  -3.98634e-67  -3.66629e-67  -3.20316e-67  -2.65061e-67  -2.06728e-67  -1.50469e-67  -1.00084e-67  -5.78638e-68  -2.47314e-68  -5.32001e-70   1.56264e-68   2.50551e-68   2.92234e-68   2.95674e-68   2.73676e-68   2.36841e-68   1.93362e-68   1.49116e-68   1.07947e-68   7.20328e-69   4.22669e-69   1.85761e-69             0
            0  -9.36173e-71  -1.53768e-70   -1.8057e-70   -1.8053e-70  -1.61956e-70  -1.32871e-70   -9.9951e-71  -6.81075e-71  -4.04701e-71  -1.86171e-71  -2.92313e-72   7.06518e-72   1.22855e-71   1.38793e-71   1.29872e-71   1.06175e-71   7.57672e-72   4.44926e-72   1.61025e-72  -7.41706e-73  -2.54295e-72  -3.82212e-72  -4.66082e-72  -5.15839e-72  -5.39891e-72  -5.42107e-72  -5.21153e-72  -4.77481e-72  -4.15576e-72   -3.4258e-72  -2.66173e-72  -1.93001e-72  -1.27888e-72  -7.36601e-73  -3.13655e-73  -6.75343e-75   1.96633e-73   3.14109e-73   3.64991e-73   3.67898e-73   3.39246e-73   2.92483e-73   2.37893e-73   1.82769e-73   1.31813e-73   8.76292e-74   5.12266e-74   2.24305e-74             0
            0  -1.11757e-75  -1.82886e-75  -2.13967e-75  -2.13125e-75  -1.90489e-75    -1.557e-75   -1.1669e-75  -7.92199e-76  -4.68998e-76  -2.14961e-76  -3.36428e-77   8.09517e-77   1.40261e-76   1.57877e-76   1.47189e-76    1.1989e-76   8.52407e-77   4.98727e-77   1.79846e-77  -8.25109e-78  -2.81896e-77  -4.22156e-77  -5.12914e-77  -5.65598e-77  -5.89808e-77  -5.90067e-77  -5.65191e-77  -5.15943e-77  -4.47419e-77   -3.6749e-77  -2.84491e-77  -2.05537e-77  -1.35702e-77  -7.78791e-78  -3.30438e-78  -7.11737e-80   2.05615e-78   3.27291e-78   3.78944e-78   3.80591e-78    3.4969e-78   3.00405e-78   2.43459e-78   1.86375e-78   1.33932e-78   8.87199e-79   5.16793e-79   2.25485e-79             0
  1.25673e-92  -1.11127e-80  -1.81213e-80  -2.11259e-80  -2.09682e-80  -1.86746e-80    -1.521e-80  -1.13589e-80  -7.68419e-81  -4.53317e-81  -2.07048e-81  -3.23026e-82   7.74021e-82   1.33649e-81   1.49909e-81    1.3927e-81   1.13042e-81     8.009e-82   4.66953e-82   1.67806e-82  -7.66973e-83   -2.6115e-82  -3.89726e-82   -4.7186e-82  -5.18511e-82  -5.38817e-82  -5.37172e-82  -5.12731e-82  -4.66425e-82   -4.0307e-82  -3.29913e-82  -2.54515e-82  -1.83243e-82  -1.20564e-82  -6.89528e-83  -2.91565e-83  -6.27954e-85    1.8014e-83   2.85765e-83   3.29729e-83   3.30023e-83   3.02185e-83   2.58703e-83   2.08943e-83   1.59403e-83   1.14157e-83   7.53615e-84   4.37481e-84   1.90232e-84             0
            0  -9.27817e-86  -1.50786e-85   -1.7519e-85  -1.73291e-85  -1.53812e-85  -1.24851e-85   -9.2923e-86  -6.26489e-86   -3.6834e-86  -1.67672e-86  -2.60796e-87    6.2245e-87   1.07123e-86   1.19753e-86   1.10879e-86   8.96956e-87   6.33356e-87   3.68031e-87   1.31819e-87  -6.00331e-88  -2.03746e-87  -3.03045e-87  -3.65684e-87  -4.00493e-87  -4.14786e-87  -4.12136e-87   -3.9207e-87   -3.5547e-87  -3.06162e-87  -2.49759e-87  -1.92039e-87  -1.37802e-87   -9.0366e-88  -5.15111e-88  -2.17099e-88  -4.67371e-90   1.33223e-88   2.10648e-88   2.42255e-88   2.41671e-88   2.20556e-88   1.88198e-88   1.51498e-88   1.15198e-88   8.22283e-89   5.41054e-89   3.13059e-89   1.35685e-89             0
            0  -6.55208e-91  -1.06137e-90  -1.22913e-90  -1.21185e-90  -1.07212e-90  -8.67417e-91  -6.43494e-91  -4.32436e-91  -2.53424e-91   -1.1499e-91  -1.78326e-92   4.24032e-92   7.27436e-92   8.10581e-92   7.48098e-92   6.03219e-92    4.2457e-92   2.45916e-92   8.78001e-93  -3.98493e-93  -1.34822e-92  -1.99887e-92  -2.40428e-92  -2.62469e-92  -2.70963e-92  -2.68368e-92  -2.54482e-92  -2.29987e-92  -1.97451e-92  -1.60561e-92   -1.2306e-92  -8.80232e-93  -5.75387e-93  -3.26944e-93   -1.3736e-93    -2.955e-95   8.37439e-94   1.31997e-93   1.51322e-93    1.5048e-93   1.36897e-93   1.16443e-93   9.34395e-94    7.0826e-94   5.03959e-94   3.30555e-94    1.9066e-94   8.23765e-95             0
 5.58099e-108  -3.93998e-96  -6.36245e-96  -7.34503e-96  -7.21906e-96  -6.36671e-96  -5.13497e-96  -3.79748e-96  -2.54398e-96  -1.48623e-96   -6.7228e-97  -1.03958e-97   2.46323e-97   4.21281e-97   4.67979e-97   4.30565e-97   3.46103e-97   2.42846e-97   1.40224e-97   4.99112e-98  -2.25788e-98  -7.61608e-98  -1.12568e-97  -1.34981e-97    -1.469e-97  -1.51186e-97  -1.49276e-97  -1.41116e-97   -1.2714e-97  -1.08817e-97  -8.82147e-98  -6.74035e-98   -4.8065e-98  -3.13227e-98  -1.77437e-98  -7.43205e-99 -1.59738e-100   4.50286e-99   7.07591e-99   8.08719e-99   8.01767e-99   7.27177e-99   6.16643e-99   4.93318e-99   3.72792e-99   2.64453e-99   1.72932e-99  9.94431e-100  4.28359e-100             0
 2.12898e-113 -2.03004e-101 -3.26834e-101 -3.76171e-101 -3.68605e-101 -3.24105e-101 -2.60614e-101 -1.92153e-101 -1.28339e-101 -7.47524e-102 -3.37127e-102 -5.19861e-103  1.22766e-102  2.09344e-102  2.31855e-102  2.12681e-102   1.7045e-102  1.19241e-102  6.86469e-103  2.43619e-103 -1.09863e-103 -3.69502e-103 -5.44514e-103 -6.50991e-103 -7.06369e-103 -7.24816e-103 -7.13531e-103 -6.72523e-103 -6.04119e-103 -5.15526e-103 -4.16683e-103 -3.17439e-103 -2.25695e-103 -1.46645e-103 -8.28271e-104 -3.45912e-104 -7.42668e-106  2.08322e-104  3.26408e-104  3.71963e-104  3.67683e-104  3.32498e-104   2.8113e-104  2.24246e-104  1.68963e-104  1.19509e-104  7.79213e-105  4.46771e-105   1.9189e-105             0
-1.62428e-118 -9.01375e-107   -1.447e-106 -1.66059e-106 -1.62247e-106 -1.42245e-106 -1.14048e-106 -8.38443e-107 -5.58375e-107 -3.24291e-107 -1.45832e-107 -2.24269e-108  5.27916e-108  8.97656e-108  9.91325e-108  9.06725e-108  7.24588e-108  5.05437e-108  2.90144e-108  1.02675e-108 -4.61632e-109 -1.54825e-108 -2.27503e-108 -2.71211e-108 -2.93438e-108 -3.00238e-108 -2.94717e-108 -2.76983e-108 -2.48099e-108 -2.11111e-108 -1.70147e-108 -1.29252e-108 -9.16346e-109 -5.93703e-109 -3.34378e-109 -1.39252e-109  -2.9861e-111  8.33795e-110  1.30275e-109  1.48036e-109  1.45919e-109  1.31581e-109  1.10938e-109  8.82409e-110  6.62989e-110  4.67613e-110   3.0403e-110  1.73828e-110  7.44507e-111             0
            0 -3.46749e-112 -5.55088e-112 -6.35239e-112 -6.18913e-112 -5.41092e-112 -4.32617e-112 -3.17156e-112 -2.10625e-112 -1.21985e-112 -5.47034e-113 -8.39051e-114  1.96903e-113  3.33887e-113  3.67704e-113  3.35389e-113  2.67273e-113  1.85918e-113   1.0643e-113  3.75592e-114  -1.6838e-114 -5.63186e-114 -8.25272e-114 -9.81099e-114 -1.05857e-113  -1.0801e-113 -1.05731e-113  -9.9094e-114 -8.85152e-114  -7.5111e-114 -6.03695e-114 -4.57335e-114  -3.2334e-114 -2.08916e-114  -1.1734e-114 -4.87333e-115 -1.04366e-116  2.90175e-115  4.52144e-115  5.12385e-115  5.03674e-115  4.52943e-115   3.8084e-115  3.02095e-115  2.26356e-115  1.59216e-115  1.03236e-115  5.88642e-116  2.51432e-116             0
            0 -1.16142e-117 -1.85422e-117 -2.11621e-117 -2.05624e-117 -1.79282e-117 -1.42953e-117 -1.04517e-117 -6.92224e-118 -3.99825e-118 -1.78818e-118 -2.73574e-119  6.40118e-119  1.08256e-118    1.189e-118  1.08159e-118  8.59607e-119  5.96349e-119  3.40467e-119  1.19831e-119 -5.35711e-120  -1.7871e-119 -2.61176e-119  -3.0966e-119 -3.33217e-119 -3.39086e-119 -3.31042e-119 -3.09434e-119 -2.75663e-119 -2.33294e-119 -1.87007e-119 -1.41292e-119 -9.96288e-120 -6.42012e-120 -3.59637e-120 -1.48968e-120 -3.18583e-122  8.82245e-121  1.37107e-120  1.54964e-120  1.51926e-120  1.36263e-120  1.14269e-120  9.04021e-121  6.75585e-121  4.73944e-121  3.06497e-121  1.74302e-121  7.42558e-122             0
-9.01658e-135 -3.40284e-123 -5.41846e-123 -6.16785e-123 -5.97735e-123 -5.19796e-123 -4.13381e-123 -3.01443e-123 -1.99127e-123 -1.14715e-123 -5.11716e-124 -7.80932e-125   1.8221e-124  3.07355e-124  3.36699e-124  3.05487e-124  2.42158e-124   1.6756e-124  9.54149e-125  3.34958e-125 -1.49342e-125 -4.96926e-125 -7.24353e-125 -8.56597e-125 -9.19377e-125 -9.33149e-125 -9.08655e-125 -8.47148e-125 -7.52741e-125 -6.35402e-125 -5.08022e-125 -3.82842e-125 -2.69258e-125 -1.73064e-125 -9.66969e-126 -3.99513e-126 -8.53156e-128  2.35377e-126   3.6486e-126  4.11323e-126  4.02228e-126  3.59835e-126  3.00982e-126  2.37509e-126  1.77039e-126  1.23881e-126  7.99089e-127  4.53277e-127  1.92614e-127             0
            0 -8.75898e-129 -1.39119e-128 -1.57958e-128  -1.5269e-128 -1.32444e-128 -1.05063e-128 -7.64191e-129 -5.03531e-129 -2.89344e-129 -1.28745e-129 -1.96004e-130  4.56081e-130  7.67404e-130  8.38553e-130  7.58902e-130  6.00065e-130  4.14165e-130  2.35249e-130  8.23787e-131 -3.66333e-131 -1.21594e-130 -1.76799e-130 -2.08553e-130 -2.23277e-130 -2.26053e-130 -2.19568e-130 -2.04193e-130 -1.80983e-130 -1.52389e-130 -1.21535e-130 -9.13594e-131 -6.40938e-131 -4.10934e-131 -2.29031e-131  -9.4392e-132 -2.01272e-133  5.53323e-132  8.55592e-132  9.62155e-132  9.38545e-132  8.37545e-132  6.98821e-132  5.50083e-132  4.09017e-132  2.85497e-132  1.83703e-132  1.03946e-132  4.40618e-133             0
-6.56043e-146 -1.98879e-134 -3.15104e-134 -3.56894e-134 -3.44144e-134 -2.97778e-134 -2.35634e-134 -1.70972e-134 -1.12378e-134 -6.44177e-135  -2.8593e-135 -4.34281e-136  1.00788e-135  1.69176e-135  1.84409e-135  1.66486e-135  1.31319e-135  9.04153e-136  5.12314e-136  1.78966e-136  -7.9385e-137 -2.62864e-136 -3.81279e-136 -4.48664e-136 -4.79171e-136  -4.8395e-136 -4.68924e-136 -4.35029e-136 -3.84645e-136 -3.23089e-136 -2.57049e-136 -1.92759e-136 -1.34904e-136  -8.6284e-137 -4.79738e-137 -1.97242e-137 -4.19938e-139  1.15059e-137  1.77487e-137  1.99112e-137  1.93759e-137  1.72492e-137  1.43576e-137  1.12745e-137  8.36307e-138  5.82347e-138  3.73812e-138  2.11011e-138  8.92318e-139             0
            0 -3.99857e-140 -6.32023e-140 -7.14135e-140  -6.8698e-140 -5.93006e-140 -4.68132e-140 -3.38858e-140 -2.22198e-140 -1.27066e-140 -5.62669e-141 -8.52649e-142  1.97384e-141  3.30533e-141  3.59443e-141  3.23737e-141  2.54749e-141  1.74984e-141  9.89154e-142  3.44726e-142  -1.5254e-142 -5.03922e-142 -7.29206e-142 -8.56056e-142 -9.12107e-142 -9.19031e-142 -8.88395e-142 -8.22237e-142 -7.25296e-142  -6.0779e-142 -4.82419e-142 -3.60912e-142 -2.51995e-142 -1.60796e-142  -8.9193e-143 -3.65857e-143 -7.77723e-145   2.1241e-143  3.26894e-143  3.65868e-143  3.55199e-143  3.15473e-143  2.61975e-143   2.0524e-143  1.51885e-143  1.05516e-143  6.75736e-144  3.80556e-144  1.60555e-144             0
            0  -7.1443e-146 -1.12663e-145 -1.27005e-145 -1.21893e-145 -1.04975e-145 -8.26774e-146 -5.97078e-146 -3.90614e-146  -2.2286e-146  -9.8459e-147 -1.48869e-147  3.43781e-147  5.74368e-147  6.23168e-147  5.59973e-147   4.3963e-147  3.01281e-147  1.69918e-147   5.9082e-148  -2.6082e-148 -8.59673e-148 -1.24115e-147 -1.45371e-147 -1.54535e-147 -1.55351e-147 -1.49828e-147 -1.38353e-147 -1.21762e-147 -1.01802e-147 -8.06184e-148 -6.01754e-148 -4.19196e-148 -2.66877e-148 -1.47698e-148 -6.04461e-149 -1.28293e-150   3.4933e-149  5.36393e-149  5.98981e-149  5.80194e-149  5.14135e-149  4.25979e-149  3.32969e-149  2.45851e-149  1.70408e-149  1.08884e-149   6.1182e-150  2.57542e-150             0
            0 -1.13821e-151 -1.79088e-151 -2.01431e-151 -1.92887e-151 -1.65742e-151 -1.30243e-151 -9.38473e-152 -6.12578e-152 -3.48715e-152 -1.53716e-152 -2.31913e-153  5.34287e-153  8.90666e-153  9.64178e-153  8.64463e-153  6.77163e-153  4.63027e-153  2.60557e-153  9.03965e-154 -3.98145e-154 -1.30941e-153 -1.88624e-153 -2.20437e-153 -2.33809e-153 -2.34521e-153  -2.2568e-153 -2.07932e-153  -1.8259e-153 -1.52319e-153 -1.20356e-153 -8.96367e-154 -6.23045e-154 -3.95776e-154  -2.1855e-154 -8.92453e-155 -1.89121e-156  5.13466e-155  7.86686e-155  8.76539e-155  8.47172e-155  7.49059e-155  6.19252e-155  4.82975e-155  3.55824e-155  2.46091e-155  1.56897e-155  8.79662e-156  3.69476e-156             0
 8.68265e-169 -1.62212e-157 -2.54668e-157 -2.85813e-157  -2.7309e-157 -2.34144e-157 -1.83592e-157 -1.31999e-157 -8.59723e-158 -4.88336e-158 -2.14793e-158 -3.23374e-159  7.43291e-159  1.23639e-158  1.33553e-158   1.1948e-158  9.33892e-159  6.37183e-159   3.5778e-159  1.23858e-159 -5.44311e-160 -1.78627e-159  -2.5676e-159 -2.99413e-159 -3.16888e-159 -3.17163e-159 -3.04546e-159 -2.79988e-159 -2.45332e-159 -2.04217e-159 -1.61014e-159 -1.19659e-159 -8.29926e-160 -5.26055e-160 -2.89866e-160 -1.18113e-160 -2.49901e-162  6.76606e-161  1.03441e-160  1.15008e-160  1.10916e-160  9.78602e-161   8.0728e-161  6.28273e-161  4.61877e-161  3.18754e-161  2.02788e-161  1.13452e-161  4.75506e-162             0
 8.28042e-175  -2.0742e-163 -3.24949e-163 -3.63912e-163 -3.46971e-163 -2.96854e-163 -2.32268e-163 -1.66639e-163 -1.08303e-163 -6.13872e-164 -2.69438e-164 -4.04803e-165  9.28391e-165  1.54103e-164  1.66107e-164  1.48289e-164  1.15661e-164  7.87471e-165  4.41231e-165  1.52426e-165 -6.68409e-166 -2.18893e-165 -3.13975e-165  -3.6536e-165 -3.85867e-165 -3.85387e-165 -3.69275e-165 -3.38781e-165 -2.96223e-165  -2.4606e-165 -1.93597e-165  -1.4357e-165 -9.93677e-166 -6.28527e-166 -3.45603e-166  -1.4053e-166 -2.96864e-168  8.01623e-167  1.22298e-166   1.3569e-166  1.30588e-166  1.14975e-166  9.46483e-167  7.35069e-167   5.3926e-167  3.71381e-167  2.35776e-167  1.31633e-167  5.50557e-168             0
-1.57937e-180 -2.38654e-169 -3.73106e-169 -4.16975e-169 -3.96738e-169 -3.38728e-169 -2.64481e-169 -1.89357e-169 -1.22813e-169 -6.94673e-170 -3.04272e-170 -4.56216e-171  1.04405e-170  1.72944e-170  1.86031e-170  1.65733e-170     1.29e-170  8.76475e-171   4.9009e-171  1.68956e-171  -7.3934e-172 -2.41628e-171 -3.45873e-171  -4.0165e-171 -4.23322e-171 -4.21926e-171 -4.03456e-171 -3.69379e-171 -3.22314e-171 -2.67183e-171 -2.09785e-171 -1.55257e-171 -1.07236e-171 -6.76908e-172 -3.71445e-172  -1.5073e-172 -3.17912e-174  8.56271e-173   1.3037e-172   1.4435e-172  1.38639e-172  1.21815e-172  1.00075e-172  7.75629e-173  5.67857e-173  3.90279e-173   2.4727e-173   1.3777e-173  5.75055e-174             0
            0 -2.47753e-175 -3.86547e-175 -4.31122e-175 -4.09368e-175 -3.48803e-175 -2.71797e-175 -1.94202e-175 -1.25701e-175  -7.0957e-176 -3.10171e-176 -4.64146e-177  1.05996e-176  1.75229e-176  1.88109e-176  1.67247e-176  1.29916e-176  8.80927e-177  4.91589e-177  1.69134e-177 -7.38602e-178 -2.40907e-177 -3.44148e-177 -3.98846e-177 -4.19524e-177 -4.17302e-177 -3.98234e-177 -3.63868e-177  -3.1687e-177 -2.62145e-177 -2.05418e-177 -1.51721e-177 -1.04584e-177 -6.58853e-178 -3.60816e-178 -1.46126e-178 -3.07722e-180  8.26789e-179  1.25631e-178  1.38826e-178  1.33069e-178  1.16689e-178  9.56725e-179  7.40038e-179  5.40724e-179  3.70894e-179  2.34522e-179  1.30408e-179  5.43252e-180             0
 1.43642e-192 -2.32659e-181 -3.62281e-181 -4.03259e-181 -3.82154e-181 -3.24973e-181 -2.52728e-181 -1.80221e-181 -1.16421e-181 -6.55895e-182 -2.86145e-182 -4.27369e-183  9.73983e-183    1.607e-182  1.72173e-182  1.52778e-182  1.18444e-182  8.01561e-183  4.46423e-183  1.53294e-183 -6.68095e-184 -2.17486e-183 -3.10083e-183 -3.58664e-183  -3.7652e-183 -3.73794e-183 -3.56017e-183 -3.24659e-183 -2.82173e-183 -2.32985e-183 -1.82211e-183 -1.34318e-183  -9.2408e-184 -5.81012e-184 -3.17568e-184 -1.28361e-184 -2.69894e-186  7.23438e-185  1.09714e-184  1.21002e-184  1.15759e-184  1.01312e-184  8.29045e-185  6.40033e-185  4.66748e-185  3.19532e-185  2.01654e-185  1.11915e-185  4.65313e-186             0
            0 -1.98123e-187  -3.0791e-187 -3.42077e-187  -3.2355e-187 -2.74608e-187 -2.13148e-187 -1.51704e-187  -9.7811e-188  -5.4999e-188 -2.39482e-188 -3.57003e-189  8.11999e-189  1.33718e-188   1.4299e-188  1.26639e-188  9.79915e-189  6.61879e-189  3.67923e-189  1.26097e-189 -5.48496e-190 -1.78214e-189 -2.53606e-189 -2.92778e-189 -3.06767e-189 -3.03965e-189 -2.88956e-189 -2.63002e-189 -2.28149e-189 -1.88019e-189 -1.46765e-189 -1.07983e-189 -7.41485e-190  -4.6532e-190 -2.53851e-190 -1.02412e-190 -2.15003e-192  5.74988e-191  8.70355e-191  9.58086e-191  9.14835e-191  7.99147e-191  6.52709e-191  5.02946e-191  3.66083e-191  2.50144e-191  1.57565e-191  8.72811e-192  3.62208e-192             0
            0 -1.53349e-193 -2.37877e-193 -2.63775e-193  -2.4902e-193 -2.10954e-193 -1.63433e-193 -1.16101e-193 -7.47155e-194 -4.19336e-194 -1.82249e-194 -2.71184e-195  6.15611e-195  1.01188e-194  1.08002e-194  9.54729e-195  7.37373e-195  4.97123e-195  2.75823e-195   9.4356e-196 -4.09649e-196 -1.32854e-195 -1.88704e-195 -2.17445e-195  -2.2741e-195 -2.24912e-195 -2.13408e-195 -1.93878e-195 -1.67872e-195 -1.38087e-195 -1.07588e-195 -7.90112e-196 -5.41539e-196 -3.39212e-196 -1.84711e-196 -7.43806e-197 -1.55917e-198  4.16052e-197   6.2861e-197  6.90693e-197  6.58292e-197  5.73982e-197  4.67937e-197  3.59903e-197  2.61481e-197  1.78339e-197  1.12128e-197  6.19975e-198   2.5681e-198             0
 -1.2459e-210 -1.08124e-199 -1.67416e-199 -1.85302e-199 -1.74614e-199  -1.4765e-199 -1.14179e-199 -8.09627e-200  -5.2007e-200 -2.91351e-200 -1.26393e-200 -1.87733e-201  4.25365e-201  6.97897e-201  7.43531e-201  6.56073e-201  5.05783e-201  3.40366e-201  1.88503e-201  6.43675e-202 -2.78935e-202 -9.02982e-202 -1.28024e-201 -1.47254e-201 -1.53722e-201 -1.51757e-201 -1.43732e-201 -1.30341e-201 -1.12652e-201 -9.24962e-202 -7.19359e-202 -5.27326e-202  -3.6077e-202 -2.25571e-202 -1.22607e-202  -4.9283e-203 -1.03152e-204  2.74664e-203  4.14238e-203  4.54326e-203   4.3223e-203  3.76191e-203  3.06134e-203   2.3503e-203  1.70449e-203  1.16042e-203  7.28284e-204  4.01953e-204    1.662e-204             0
            0 -6.95964e-206 -1.07567e-205 -1.18845e-205 -1.11789e-205 -9.43564e-206 -7.28355e-206 -5.15539e-206 -3.30567e-206 -1.84856e-206 -8.00504e-207  -1.1869e-207  2.68432e-207  4.39631e-207   4.6754e-207  4.11808e-207  3.16905e-207   2.1288e-207  1.17688e-207  4.01148e-208 -1.73522e-208 -5.60738e-208 -7.93595e-208 -9.11171e-208 -9.49496e-208 -9.35687e-208 -8.84633e-208 -8.00784e-208 -6.90878e-208 -5.66255e-208 -4.39604e-208 -3.21679e-208 -2.19686e-208 -1.37115e-208 -7.43954e-209 -2.98509e-209 -6.23863e-211  1.65773e-209  2.49572e-209  2.73239e-209  2.59491e-209  2.25448e-209  1.83139e-209  1.40354e-209  1.01608e-209  6.90531e-210  4.32614e-210  2.38346e-210  9.83781e-211             0
-5.66569e-223 -4.09781e-212 -6.32235e-212 -6.97293e-212 -6.54742e-212  -5.5167e-212 -4.25097e-212 -3.00361e-212 -1.92255e-212 -1.07322e-212 -4.63937e-213  -6.8669e-214  1.55023e-213  2.53451e-213  2.69069e-213   2.3658e-213  1.81741e-213  1.21871e-213  6.72568e-214  2.28851e-214 -9.88173e-215 -3.18775e-214 -4.50366e-214 -5.16189e-214 -5.36963e-214 -5.28232e-214  -4.9854e-214   -4.505e-214 -3.87994e-214 -3.17453e-214 -2.46021e-214 -1.79713e-214 -1.22519e-214 -7.63362e-215 -4.13464e-215 -1.65614e-215 -3.45612e-217  9.16515e-216  1.37743e-215  1.50544e-215  1.42722e-215  1.23784e-215   1.0038e-215  7.67962e-216  5.54997e-216  3.76526e-216  2.35484e-216  1.29515e-216  5.33656e-217             0
-2.70161e-229 -2.21137e-218 -3.40597e-218 -3.74999e-218 -3.51509e-218 -2.95664e-218 -2.27436e-218 -1.60424e-218 -1.02508e-218 -5.71245e-219 -2.46517e-219 -3.64263e-220  8.20892e-220   1.3398e-219  1.41993e-219  1.24634e-219  9.55802e-220  6.39839e-220  3.52504e-220   1.1974e-220  -5.1614e-221 -1.66219e-220 -2.34434e-220 -2.68239e-220 -2.78558e-220 -2.73561e-220 -2.57744e-220 -2.32511e-220 -1.99909e-220 -1.63285e-220 -1.26329e-220  -9.2123e-221  -6.2698e-221  -3.8998e-221 -2.10869e-221 -8.43207e-222 -1.75708e-223  4.65045e-222  6.97732e-222  7.61287e-222  7.20507e-222  6.23842e-222  5.05036e-222  3.85726e-222  2.78288e-222   1.8848e-222  1.17678e-222  6.46132e-223  2.65784e-223             0
            0 -1.09578e-224 -1.68489e-224 -1.85194e-224 -1.73302e-224 -1.45523e-224 -1.11754e-224 -7.86937e-225 -5.01992e-225 -2.79276e-225 -1.20317e-225 -1.77491e-226  3.99301e-226   6.5062e-226  6.88375e-226  6.03209e-226  4.61818e-226  3.08635e-226   1.6975e-226  5.75652e-227 -2.47715e-227 -7.96423e-227 -1.12139e-226 -1.28095e-226 -1.32801e-226 -1.30201e-226 -1.22468e-226 -1.10294e-226 -9.46706e-227 -7.71979e-227 -5.96259e-227 -4.34088e-227 -2.94944e-227 -1.83149e-227 -9.88671e-228 -3.94687e-228 -8.21268e-230  2.16952e-228  3.24965e-228  3.53977e-228   3.3446e-228  2.89107e-228  2.33661e-228  1.78165e-228  1.28327e-228  8.67697e-229  5.40856e-229  2.96474e-229  1.21752e-229             0
            0             0             0             0             0             0             0             0             0             0             0             0             0             0             0             0             0             0             0             0             0             0             0             0             0             0             0             0             0             0             0             0             0             0             0             0             0             0             0             0             0             0             0             0             0             0             0             0             0             0
