            0   0.000131388   0.000153014   4.19865e-05  -0.000114247  -0.000181149  -8.78397e-05   0.000100328   0.000219243   0.000142706  -8.88012e-05  -0.000273702  -0.000215295    7.9097e-05   0.000357925   0.000323807  -7.08138e-05  -0.000505403  -0.000516745   6.36593e-05   0.000830015   0.000987063  -5.74157e-05    -0.0021289   -0.00424023       1.00013   -0.00436646   -0.00225006  -4.70368e-05    0.00111904   0.000946671   4.26729e-05  -0.000655285  -0.000618035  -3.87457e-05   0.000469902   0.000466942   3.51903e-05  -0.000370181  -0.000379459  -3.19543e-05   0.000307941   0.000322047   2.89939e-05  -0.000265434  -0.000281271  -2.62731e-05   0.000234591   0.000250691   2.37616e-05
  1.42109e-16    -0.0512981     -0.081194    -0.0772383    -0.0411233     0.0120479      0.060087     0.0829846     0.0712383     0.0297797    -0.0241168    -0.0680436    -0.0837656    -0.0647467    -0.0187937     0.0352343     0.0752322     0.0849108     0.0603847     0.0116381     -0.041641    -0.0780739    -0.0831604    -0.0549691   -0.00474891     0.0476726     0.0415705     0.0195469    -0.0098938    -0.0354938    -0.0475758    -0.0416788      -0.02014    0.00891688     0.0347283     0.0479179     0.0438707     0.0242372   -0.00388428     -0.030655    -0.0470046    -0.0476606    -0.0327011   -0.00723678      0.020508     0.0419504     0.0507953     0.0447648     0.0259763   8.88178e-17
 -2.27374e-17   -0.00947655    -0.0145496    -0.0129125   -0.00525046    0.00519166     0.0140895     0.0178712     0.0151184    0.00699471   -0.00339111    -0.0123418    -0.0170405     -0.016538     -0.011914   -0.00563236  -0.000428513    0.00178452   0.000562315   -0.00307636   -0.00723244   -0.00999491    -0.0102243   -0.00795699   -0.00431871   -0.00104183   0.000169951  -0.000250648   -0.00150402   -0.00270842   -0.00319309   -0.00269179   -0.00137619   0.000266937    0.00165456    0.00233373    0.00213434    0.00120308  -7.83754e-05   -0.00124767   -0.00192549   -0.00193139   -0.00131962  -0.000334303    0.00068971     0.0014406    0.00172031    0.00148778   0.000848452  -1.59726e-18
 -3.32439e-18  -0.000233599  -0.000352115  -0.000305313  -0.000119978    0.00012013   0.000314913    0.00039022   0.000324518   0.000151347  -6.01203e-05  -0.000235769  -0.000324865  -0.000315373  -0.000232283  -0.000122188  -3.21704e-05   7.99024e-06  -5.97984e-06  -5.58167e-05  -0.000111887  -0.000146934  -0.000146714  -0.000113982  -6.53465e-05  -2.31164e-05  -4.68475e-06  -6.75314e-06  -1.91862e-05  -3.12425e-05  -3.53927e-05  -2.91517e-05  -1.48753e-05   2.04876e-06   1.57314e-05   2.20448e-05   1.98778e-05   1.11193e-05   -4.0681e-07  -1.05053e-05  -1.60506e-05  -1.58383e-05  -1.06693e-05  -2.77764e-06   5.09261e-06    1.0604e-05   1.24537e-05    1.0575e-05   5.92863e-06   2.42257e-20
 -5.55661e-20  -1.44452e-06  -2.14125e-06  -1.82327e-06  -7.05497e-07   6.83529e-07   1.76443e-06   2.14685e-06   1.75549e-06   8.12236e-07  -2.93993e-07  -1.17932e-06  -1.60513e-06  -1.53852e-06  -1.12461e-06  -5.97916e-07  -1.77835e-07   9.14544e-09  -4.35135e-08  -2.46196e-07  -4.68579e-07  -5.99428e-07  -5.87295e-07  -4.50532e-07  -2.58748e-07  -9.70917e-08  -2.46763e-08  -2.81781e-08  -6.87454e-08  -1.07464e-07  -1.18918e-07  -9.61925e-08  -4.85747e-08   5.66137e-09   4.79589e-08   6.64274e-08   5.90205e-08   3.26207e-08  -8.13659e-10  -2.91162e-08   -4.3928e-08  -4.26856e-08  -2.83437e-08  -7.39956e-09   1.27872e-08   2.63853e-08   3.05187e-08   2.55054e-08   1.40844e-08   9.60136e-23
 -4.32525e-21  -3.18197e-09  -4.64759e-09  -3.89697e-09  -1.48872e-09   1.40282e-09   3.57561e-09    4.2841e-09   3.45114e-09   1.57945e-09  -5.42876e-10  -2.18742e-09   -2.9388e-09  -2.77926e-09  -2.00821e-09   -1.0624e-09  -3.25677e-10  -1.67347e-12  -8.28396e-11  -4.05486e-10  -7.50699e-10  -9.42873e-10  -9.09508e-10  -6.88626e-10  -3.92494e-10  -1.49079e-10  -4.00741e-11  -4.23252e-11  -9.69274e-11  -1.47916e-10  -1.60891e-10  -1.28215e-10   -6.4007e-11   6.80472e-12   6.03889e-11   8.26537e-11    7.2461e-11   3.95712e-11  -7.61831e-13  -3.39259e-11  -5.05648e-11  -4.84726e-11  -3.17689e-11  -8.25632e-12   1.37684e-11   2.81214e-11   3.20939e-11   2.64567e-11   1.44183e-11  -1.78862e-26
 -1.62317e-24  -3.08373e-12  -4.44627e-12  -3.67908e-12   -1.3894e-12   1.28153e-12   3.22953e-12   3.81862e-12   3.03634e-12   1.37452e-12  -4.57159e-13  -1.83753e-12  -2.43922e-12  -2.27856e-12  -1.62766e-12  -8.53826e-13  -2.63518e-13  -7.43877e-15  -6.69827e-14  -3.06806e-13  -5.57513e-13  -6.90182e-13  -6.57043e-13  -4.91537e-13  -2.77534e-13  -1.05357e-13  -2.88137e-14  -2.92352e-14  -6.46541e-14  -9.69936e-14  -1.04054e-13   -8.1873e-14  -4.04298e-14   4.06376e-15   3.68765e-14   4.99162e-14   4.32444e-14   2.33554e-14  -3.76239e-16  -1.94089e-14  -2.86078e-14  -2.70997e-14  -1.75562e-14   -4.5315e-15   7.37564e-15   1.49154e-14   1.68237e-14   1.37045e-14   7.38273e-15   3.23831e-28
 -9.68756e-28  -1.51215e-15  -2.15564e-15   -1.7632e-15  -6.58969e-16   5.97655e-16    1.4907e-15   1.74244e-15   1.36975e-15    6.1378e-16  -1.99485e-16  -7.97694e-16  -1.04748e-15  -9.67762e-16  -6.84036e-16  -3.55615e-16  -1.09622e-16  -4.32063e-18  -2.75541e-17  -1.21524e-16  -2.17708e-16  -2.66283e-16  -2.50626e-16  -1.85488e-16  -1.03754e-16  -3.92005e-17  -1.07642e-17  -1.06487e-17  -2.30198e-17  -3.40743e-17  -3.61307e-17  -2.81166e-17  -1.37464e-17   1.33121e-18    1.2204e-17   1.63538e-17   1.40195e-17   7.49589e-18  -1.06536e-19  -6.07241e-18  -8.86086e-18  -8.30597e-18  -5.32566e-18  -1.36443e-18   2.18117e-18   4.37011e-18   4.87829e-18   3.93244e-18   2.09685e-18             0
 -1.26544e-30  -4.14331e-19  -5.84717e-19  -4.73407e-19  -1.75267e-19   1.56791e-19    3.8744e-19   4.48287e-19   3.48859e-19   1.54868e-19  -4.94653e-20  -1.96584e-19   -2.5564e-19  -2.33867e-19  -1.63723e-19  -8.43799e-20  -2.59005e-20  -1.17636e-21   -6.4189e-21  -2.76182e-20  -4.89053e-20  -5.91979e-20  -5.51618e-20  -4.04332e-20  -2.24177e-20  -8.41786e-21  -2.30856e-21  -2.24296e-21  -4.76915e-21  -6.98117e-21  -7.32796e-21  -5.64721e-21  -2.73596e-21   2.58031e-22   2.37474e-21   3.15329e-21   2.67787e-21   1.41881e-21  -1.84272e-23  -1.12477e-21  -1.62641e-21  -1.51033e-21  -9.59485e-22  -2.44006e-22   3.84571e-22   7.63942e-22   8.44908e-22   6.74768e-22   3.56519e-22             0
  6.18763e-34  -6.83087e-23  -9.55317e-23  -7.66434e-23  -2.81328e-23   2.48782e-23   6.09546e-23   6.98902e-23   5.38992e-23   2.37237e-23  -7.47325e-24  -2.95097e-23  -3.80389e-23  -3.44916e-23  -2.39371e-23  -1.22367e-23  -3.73576e-24  -1.82546e-25  -9.12415e-25  -3.85652e-24  -6.76161e-24  -8.10994e-24  -7.48982e-24  -5.44246e-24   -2.9929e-24  -1.11652e-24  -3.05108e-25  -2.92343e-25  -6.13608e-25  -8.89635e-25  -9.25499e-25  -7.07033e-25  -3.39717e-25   3.14077e-26   2.89177e-25   3.80808e-25   3.20661e-25   1.68495e-25  -2.04773e-27  -1.31081e-25  -1.87985e-25  -1.73101e-25  -1.09052e-25  -2.75367e-26   4.28956e-26   8.45423e-26   9.27243e-26   7.34338e-26   3.84798e-26             0
 -2.74445e-37  -7.17587e-27  -9.95393e-27  -7.92041e-27  -2.88456e-27   2.52561e-27   6.14003e-27   6.98271e-27   5.34126e-27   2.33264e-27  -7.26432e-28  -2.85028e-27  -3.64488e-27   -3.2785e-27  -2.25729e-27  -1.14524e-27  -3.47611e-28   -1.7704e-29  -8.37037e-29   -3.4897e-28  -6.06553e-28  -7.21557e-28  -6.61041e-28  -4.76567e-28  -2.60099e-28  -9.64051e-29  -2.62239e-29  -2.48441e-29  -5.15936e-29  -7.41723e-29  -7.65444e-29  -5.80167e-29  -2.76654e-29   2.51804e-30   2.31489e-29   3.02536e-29   2.52795e-29   1.31833e-29   -1.5238e-31   -1.0086e-29  -1.43558e-29  -1.31181e-29  -8.20172e-30  -2.05712e-30   3.17282e-30     6.208e-30   6.75728e-30   5.31088e-30   2.76207e-30             0
  8.26519e-42   -5.0279e-31   -6.9226e-31  -5.46726e-31  -1.97684e-31   1.71578e-31    4.1415e-31   4.67491e-31   3.54947e-31   1.53902e-31  -4.74619e-32  -1.85084e-31   -2.3496e-31  -2.09796e-31  -1.43401e-31  -7.22467e-32  -2.18016e-32   -1.1381e-33  -5.17947e-33  -2.13549e-32  -3.68305e-32  -4.34892e-32   -3.9551e-32  -2.83085e-32  -1.53426e-32  -5.65129e-33  -1.52962e-33  -1.43535e-33  -2.95384e-33  -4.21442e-33  -4.31756e-33  -3.24905e-33  -1.53855e-33   1.38261e-34   1.26774e-33   1.64532e-33   1.36513e-33    7.0699e-34  -7.86118e-36  -5.32812e-34   -7.5314e-34  -6.83394e-34  -4.24303e-34   -1.0575e-34   1.61699e-34   3.14265e-34   3.39699e-34   2.65131e-34    1.3694e-34             0
  1.91922e-45  -2.43893e-35  -3.33512e-35  -2.61595e-35  -9.39595e-36    8.0918e-36   1.94029e-35   2.17528e-35   1.64037e-35   7.06545e-36   -2.1604e-36  -8.37545e-36  -1.05612e-35  -9.36668e-36  -6.35966e-36  -3.18327e-36  -9.55175e-37  -5.06181e-38   -2.2406e-37  -9.15185e-37  -1.56736e-36   -1.8382e-36  -1.66054e-36  -1.18066e-36  -6.35764e-37  -2.32787e-37  -6.26895e-38  -5.83397e-38  -1.19108e-37  -1.68772e-37  -1.71751e-37  -1.28395e-37  -6.04091e-38    5.3709e-39   4.90876e-38   6.32983e-38   5.21786e-38   2.68499e-38  -2.89558e-40    -1.996e-38  -2.80339e-38  -2.52737e-38  -1.55913e-38  -3.86275e-39   5.86128e-39   1.13206e-38   1.21586e-38   9.42891e-39   4.83911e-39             0
 -2.26343e-49  -8.44834e-40  -1.14799e-39  -8.94756e-40    -3.194e-40   2.73137e-40    6.5093e-40   7.25174e-40    5.4342e-40   2.32625e-40  -7.05927e-41   -2.7215e-40  -3.41047e-40  -3.00592e-40  -2.02831e-40  -1.00911e-40  -3.01149e-41  -1.61062e-42  -6.98043e-42   -2.8282e-41  -4.81261e-41  -5.60897e-41  -5.03554e-41  -3.55839e-41  -1.90462e-41  -6.93455e-42  -1.85815e-42  -1.71655e-42  -3.47983e-42  -4.89974e-42  -4.95554e-42  -3.68203e-42  -1.72203e-42   1.51704e-43   1.38157e-42    1.7709e-42   1.45104e-42    7.4223e-43  -7.80977e-45  -5.44883e-43  -7.60753e-43  -6.81753e-43   -4.1807e-43  -1.02998e-43   1.55212e-43   2.98043e-43   3.18205e-43   2.45301e-43   1.25152e-43             0
 -1.49508e-54   -2.1452e-44  -2.89793e-44  -2.24543e-44  -7.96949e-45   6.77149e-45   1.60454e-44   1.77712e-44   1.32394e-44   5.63505e-45  -1.69839e-45  -6.51306e-45  -8.11483e-45   -7.1109e-45  -4.77065e-45  -2.36006e-45   -7.0065e-46  -3.76774e-47  -1.60596e-46  -6.46032e-46  -1.09283e-45  -1.26629e-45   -1.1303e-45  -7.94177e-46  -4.22696e-46   -1.5308e-46  -4.08195e-47  -3.74599e-47  -7.54545e-47  -1.05625e-46  -1.06218e-46  -7.84741e-47  -3.64967e-47   3.18946e-48   2.89385e-47   3.68871e-47   3.00552e-47   1.52885e-47  -1.57651e-49   -1.1094e-47  -1.54035e-47  -1.37271e-47  -8.37115e-48   -2.0515e-48   3.07212e-48   5.86715e-48   6.22943e-48   4.77565e-48   2.42313e-48             0
  9.64776e-59  -4.08334e-49  -5.48601e-49  -4.22752e-49  -1.49238e-49   1.26056e-49   2.97099e-49   3.27261e-49   2.42482e-49   1.02654e-49  -3.07478e-50  -1.17322e-49  -1.45388e-49  -1.26714e-49  -8.45543e-50  -4.16077e-50  -1.22913e-50  -6.62952e-52  -2.78773e-51  -1.11424e-50   -1.8745e-50  -2.16032e-50  -1.91797e-50  -1.34044e-50  -7.09688e-51  -2.55719e-51  -6.78687e-52  -6.19085e-52  -1.23971e-51  -1.72602e-51  -1.72646e-51  -1.26876e-51  -5.86996e-52   5.09322e-53   4.60375e-52   5.83769e-52   4.73158e-52   2.39434e-52  -2.42779e-54  -1.71877e-52  -2.37407e-52  -2.10467e-52  -1.27683e-52  -3.11353e-53   4.63566e-53   8.80808e-53   9.30355e-53   7.09543e-53   3.58162e-53             0
  3.88938e-66  -5.94058e-54  -7.94039e-54   -6.0875e-54  -2.13814e-54   1.79614e-54   4.21202e-54   4.61595e-54   3.40272e-54   1.43328e-54  -4.26864e-55    -1.621e-54  -1.99863e-54  -1.73309e-54  -1.15064e-54  -5.63388e-55  -1.65644e-55  -8.94653e-57  -3.71975e-56  -1.47809e-55  -2.47388e-55  -2.83667e-55  -2.50579e-55  -1.74249e-55  -9.17993e-56  -3.29196e-56  -8.69761e-57  -7.88989e-57  -1.57142e-56  -2.17677e-56  -2.16645e-56  -1.58421e-56  -7.29337e-57   6.28764e-58   5.66204e-57   7.14444e-57   5.76224e-57   2.90164e-57  -2.90056e-59  -2.06201e-57  -2.83429e-57  -2.50036e-57  -1.50947e-57  -3.66353e-58   5.42546e-58   1.02592e-57   1.07836e-57   8.18419e-58    4.1112e-58             0
            0  -6.71837e-59  -8.93677e-59  -6.81834e-59  -2.38345e-59   1.99202e-59   4.64922e-59    5.0706e-59   3.71995e-59   1.55947e-59  -4.61996e-60  -1.74649e-59   -2.1431e-59  -1.84951e-59   -1.2221e-59  -5.95564e-60  -1.74318e-60  -9.41721e-62  -3.87794e-61  -1.53269e-60  -2.55293e-60   -2.9134e-60  -2.56139e-60  -1.77276e-60  -9.29581e-61  -3.31839e-61  -8.72957e-62  -7.87827e-62  -1.56123e-61  -2.15238e-61   -2.1321e-61  -1.55179e-61  -7.11107e-62   6.09463e-63   5.46791e-62   6.86759e-62   5.51325e-62   2.76346e-62  -2.72887e-64  -1.94527e-62  -2.66153e-62  -2.33712e-62  -1.40443e-62  -3.39338e-63   5.00042e-63    9.4126e-63    9.8483e-63   7.44004e-63   3.72031e-63             0
 -4.52784e-76  -5.99519e-64  -7.93854e-64  -6.02919e-64  -2.09812e-64   1.74517e-64   4.05485e-64   4.40233e-64   3.21506e-64   1.34176e-64  -3.95547e-65  -1.48885e-64  -1.81874e-64  -1.56253e-64  -1.02784e-64  -4.98667e-65  -1.45332e-65  -7.84699e-67  -3.20446e-66  -1.26022e-65  -2.08958e-65  -2.37393e-65  -2.07777e-65  -1.43164e-65  -7.47394e-66  -2.65653e-66  -6.95949e-67  -6.25076e-67   -1.2329e-66   -1.6921e-66  -1.66871e-66  -1.20916e-66  -5.51667e-67   4.70274e-68   4.20384e-67   5.25684e-67   4.20164e-67   2.09684e-67  -2.04873e-69  -1.46288e-67  -1.99281e-67  -1.74226e-67  -1.04241e-67  -2.50798e-68   3.67853e-68   6.89453e-68   7.18234e-68   5.40244e-68   2.68975e-68             0
  3.45447e-81  -4.27763e-69  -5.63986e-69  -4.26493e-69  -1.47784e-69   1.22372e-69   2.83119e-69   3.06061e-69   2.22561e-69   9.24881e-70  -2.71396e-70  -1.01736e-69  -1.23748e-69  -1.05862e-69  -6.93402e-70  -3.34992e-70  -9.72316e-71  -5.24414e-72  -2.12586e-71  -8.32165e-71   -1.3739e-70  -1.55423e-70  -1.35457e-70  -9.29402e-71  -4.83165e-71  -1.71031e-71  -4.46283e-72  -3.99036e-72  -7.83584e-72  -1.07088e-71  -1.05163e-71  -7.58827e-72  -3.44767e-72   2.92438e-73    2.6049e-72   3.24387e-72   2.58194e-72   1.28319e-72   -1.2421e-74  -8.87682e-73  -1.20425e-72  -1.04849e-72  -6.24724e-73  -1.49699e-73   2.18607e-73   4.08051e-73   4.23334e-73   3.17113e-73   1.57235e-73             0
 -2.63555e-86  -2.46952e-74  -3.24264e-74  -2.44209e-74  -8.42784e-75   6.94902e-75   1.60123e-74   1.72393e-74    1.2485e-74   5.16734e-75  -1.50973e-75   -5.6372e-75  -6.82918e-75  -5.81845e-75  -3.79572e-75  -1.82641e-75  -5.28047e-76  -2.84378e-77  -1.14527e-76  -4.46368e-76  -7.33959e-76  -8.26942e-76  -7.17814e-76  -4.90533e-76  -2.53995e-76  -8.95573e-77  -2.32799e-77  -2.07273e-77  -4.05326e-77  -5.51704e-77  -5.39625e-77  -3.87826e-77  -1.75508e-77   1.48181e-78   1.31538e-77   1.63157e-77    1.2935e-77   6.40316e-78  -6.14706e-80  -4.39416e-78  -5.93779e-78   -5.1494e-78  -3.05612e-78  -7.29501e-79   1.06089e-78   1.97255e-78    2.0384e-78   1.52095e-78   7.51191e-79             0
  2.01076e-91  -1.16589e-79  -1.52493e-79  -1.14399e-79  -3.93275e-80   3.22964e-80   7.41325e-80   7.95036e-80   5.73549e-80   2.36469e-80  -6.88057e-81  -2.55953e-80  -3.08878e-80  -2.62149e-80  -1.70358e-80  -8.16582e-81  -2.35207e-81  -1.26449e-82  -5.06244e-82  -1.96499e-81  -3.21853e-81  -3.61236e-81  -3.12364e-81  -2.12645e-81  -1.09688e-81  -3.85307e-82   -9.9793e-83  -8.84955e-83  -1.72371e-82  -2.33723e-82  -2.27735e-82  -1.63051e-82  -7.35094e-83   6.17943e-84    5.4671e-83   6.75572e-83   5.33571e-83   2.63139e-83  -2.50748e-85  -1.79204e-83  -2.41249e-83  -2.08431e-83  -1.23238e-83  -2.93089e-84    4.2456e-84   7.86466e-84   8.09684e-84   6.01888e-84   2.96161e-84             0
            0   -4.5449e-85  -5.92247e-85  -4.42648e-85  -1.51611e-85    1.2403e-85   2.83649e-85   3.03075e-85   2.17833e-85   8.94806e-86  -2.59352e-86  -9.61314e-86  -1.15583e-85  -9.77357e-86  -6.32803e-86  -3.02215e-86  -8.67382e-87  -4.65411e-88  -1.85328e-87  -7.16565e-87  -1.16936e-86  -1.30764e-86  -1.12659e-86  -7.64144e-87  -3.92736e-87  -1.37464e-87   -3.5478e-88  -3.13421e-88  -6.08192e-88  -8.21649e-88  -7.97691e-88  -5.69051e-88  -2.55624e-88   2.14009e-89   1.88726e-88   2.32371e-88   1.82866e-88   8.98595e-89  -8.50568e-91  -6.07522e-89  -8.14932e-89  -7.01548e-89  -4.13316e-89  -9.79496e-90   1.41358e-89   2.60925e-89   2.67669e-89   1.98264e-89   9.72091e-90             0
            0  -1.47576e-90  -1.91624e-90  -1.42712e-90   -4.8708e-91   3.97019e-91   9.04767e-91   9.63311e-91   6.89927e-91   2.82409e-91  -8.15519e-92   -3.0124e-91  -3.60919e-91  -3.04116e-91  -1.96212e-91  -9.33799e-92  -2.67088e-92  -1.43016e-93  -5.66687e-93  -2.18301e-92  -3.54992e-92  -3.95578e-92  -3.39618e-92  -2.29552e-92  -1.17569e-92  -4.10101e-93  -1.05486e-93  -9.28518e-94  -1.79535e-93  -2.41699e-93  -2.33836e-93  -1.66234e-93  -7.44164e-94   6.20611e-95   5.45576e-94   6.69431e-94   5.24999e-94   2.57094e-94  -2.41876e-96   -1.7261e-94  -2.30745e-94  -1.97958e-94  -1.16227e-94  -2.74509e-95   3.94757e-95    7.2618e-95   7.42399e-95    5.4802e-95   2.67778e-95             0
 -1.1162e-107  -4.02345e-96  -5.20662e-96  -3.86446e-96  -1.31449e-96   1.06772e-96   2.42502e-96   2.57319e-96   1.83669e-96   7.49281e-97   -2.1561e-97  -7.93799e-97  -9.47854e-97  -7.95984e-97  -5.11832e-97   -2.4277e-97  -6.92089e-98  -3.69797e-99   -1.4586e-98  -5.59915e-98   -9.0744e-98  -1.00779e-97  -8.62328e-98  -5.80909e-98  -2.96533e-98  -1.03095e-98  -2.64319e-99  -2.31859e-99  -4.46784e-99   -5.9947e-99  -5.78036e-99   -4.0956e-99  -1.82737e-99   1.5184e-100   1.33076e-99   1.62747e-99   1.27212e-99  6.20908e-100 -5.80903e-102 -4.14097e-100 -5.51744e-100 -4.71787e-100 -2.76088e-100  -6.4996e-101    9.315e-101  1.70795e-100  1.74037e-100  1.28048e-100  6.23635e-101             0
 2.12898e-113 -9.27802e-102 -1.19672e-101 -8.85338e-102  -3.0017e-102  2.43007e-102  5.50135e-102  5.81849e-102  4.13963e-102  1.68331e-102 -4.82753e-103 -1.77167e-102 -2.10867e-102 -1.76508e-102 -1.13131e-102 -5.34871e-103 -1.51997e-103 -8.10372e-105 -3.18279e-104  -1.2177e-103 -1.96711e-103 -2.17761e-103  -1.8573e-103 -1.24716e-103 -6.34592e-104 -2.19927e-104 -5.62098e-105 -4.91444e-105 -9.43897e-105  -1.2624e-104 -1.21337e-104 -8.56976e-105  -3.8115e-105  3.15604e-106  2.75787e-105  3.36207e-105  2.61963e-105  1.27456e-105 -1.18633e-107 -8.44606e-106  -1.1218e-105 -9.56196e-106 -5.57795e-106 -1.30904e-106  1.86998e-106  3.41794e-106  3.47184e-106  2.54637e-106  1.23626e-106             0
 8.12141e-119 -1.82183e-107 -2.34252e-107 -1.72757e-107 -5.83899e-108  4.71194e-108   1.0634e-107  1.12119e-107  7.95193e-108  3.22346e-108 -9.21472e-109 -3.37139e-108 -4.00019e-108 -3.33798e-108  -2.1328e-108 -1.00524e-108 -2.84793e-109   -1.515e-110 -5.92663e-110 -2.26019e-109 -3.63984e-109 -4.01686e-109 -3.41542e-109 -2.28634e-109 -1.15978e-109 -4.00713e-110 -1.02107e-110 -8.89902e-111 -1.70384e-110 -2.27175e-110  -2.1768e-110  -1.5327e-110 -6.79602e-111  5.60866e-112  4.88705e-111  5.93952e-111  4.61376e-111  2.23795e-111 -2.07312e-113 -1.47391e-111 -1.95168e-111 -1.65851e-111 -9.64544e-112  -2.2568e-112  3.21381e-112  5.85642e-112  5.93073e-112  4.33662e-112  2.09905e-112             0
 1.54904e-124 -3.06516e-113 -3.92932e-113 -2.88906e-113  -9.7354e-114  7.83217e-114  1.76229e-113  1.85247e-113  1.30989e-113  5.29399e-114 -1.50869e-114 -5.50354e-114 -6.51046e-114 -5.41641e-114 -3.45046e-114 -1.62145e-114 -4.58013e-115 -2.43106e-116 -9.47466e-116 -3.60216e-115 -5.78361e-115 -6.36367e-115 -5.39473e-115 -3.60059e-115 -1.82104e-115 -6.27332e-116 -1.59388e-116 -1.38491e-116  -2.6436e-116 -3.51428e-116 -3.35742e-116   -2.357e-116 -1.04202e-116  8.57234e-118  7.44872e-117  9.02624e-117  6.99086e-117  3.38103e-117 -3.11815e-119 -2.21359e-117 -2.92253e-117 -2.47623e-117 -1.43589e-117  -3.3499e-118  4.75614e-118   8.6417e-118  8.72578e-118  6.36176e-118   3.0703e-118             0
            0 -4.44415e-119 -5.68052e-119 -4.16451e-119 -1.39927e-119   1.1224e-119  2.51817e-119  2.63935e-119   1.8609e-119  7.49919e-120 -2.13077e-120 -7.75072e-120  -9.1423e-120 -7.58404e-120 -4.81739e-120 -2.25729e-120 -6.35807e-121 -3.36725e-122  -1.3077e-121 -4.95705e-121 -7.93608e-121 -8.70691e-121    -7.36e-121 -4.89818e-121 -2.47023e-121 -8.48557e-122  -2.1499e-122 -1.86256e-122 -3.54507e-122 -4.69914e-122 -4.47658e-122 -3.13372e-122 -1.38146e-122  1.13303e-123  9.81871e-123  1.18644e-122  9.16293e-123  4.41896e-123  -4.0585e-125 -2.87665e-123 -3.78722e-123 -3.19979e-123 -1.85022e-123 -4.30442e-124  6.09372e-124  1.10409e-123  1.11169e-123   8.0822e-124  3.88964e-124             0
-5.63536e-136 -5.58253e-125 -7.11558e-125 -5.20195e-125 -1.74297e-125  1.39411e-125  3.11904e-125     3.26e-125  2.29207e-125  9.21099e-126 -2.60967e-126 -9.46655e-126 -1.11351e-125 -9.21142e-126 -5.83483e-126 -2.72644e-126 -7.65839e-127 -4.04695e-128 -1.56642e-127 -5.92085e-127 -9.45272e-127 -1.03421e-126 -8.71799e-127 -5.78589e-127 -2.90987e-127 -9.96833e-128  -2.5187e-128 -2.17593e-128 -4.12993e-128 -5.45926e-128 -5.18637e-128 -3.62059e-128 -1.59171e-128  1.30166e-129  1.12506e-128  1.35573e-128  1.04417e-128  5.02188e-129  -4.5943e-131 -3.25116e-129 -4.26858e-129 -3.59663e-129 -2.07401e-129 -4.81198e-130  6.79331e-130   1.2275e-129  1.23258e-129  8.93672e-130   4.2892e-130             0
 2.68715e-142 -6.10573e-131 -7.76136e-131 -5.65868e-131 -1.89088e-131  1.50827e-131  3.36535e-131  3.50793e-131  2.45972e-131  9.85808e-132 -2.78529e-132 -1.00767e-131 -1.18209e-131 -9.75241e-132 -6.16089e-132 -2.87107e-132  -8.0432e-133   -4.241e-134  -1.6363e-133 -6.16805e-133 -9.82091e-133 -1.07161e-132 -9.00908e-133 -5.96309e-133 -2.99098e-133  -1.0219e-133 -2.57524e-134 -2.21873e-134 -4.19979e-134 -5.53678e-134 -5.24599e-134 -3.65246e-134 -1.60146e-134  1.30596e-135  1.12591e-134  1.35316e-134  1.03942e-134  4.98583e-135 -4.54459e-137 -3.21067e-135 -4.20428e-135 -3.53309e-135 -2.03199e-135 -4.70213e-136  6.62039e-136  1.19311e-135  1.19489e-135  8.64065e-136  4.13619e-136             0
            0 -5.84145e-137 -7.40595e-137  -5.3854e-137 -1.79486e-137  1.42788e-137  3.17767e-137  3.30364e-137  2.31042e-137  9.23556e-138 -2.60245e-138 -9.39094e-138 -1.09877e-137 -9.04141e-138 -5.69686e-138 -2.64793e-138 -7.39897e-139 -3.89287e-140 -1.49743e-139 -5.62963e-139 -8.94031e-139 -9.72992e-139 -8.15879e-139  -5.3863e-139 -2.69469e-139 -9.18306e-140 -2.30828e-140  -1.9835e-140 -3.74473e-140 -4.92409e-140 -4.65344e-140 -3.23156e-140 -1.41327e-140  1.14937e-141  9.88472e-141  1.18494e-140  9.07867e-141  4.34362e-141 -3.94548e-143 -2.78273e-141 -3.63458e-141 -3.04653e-141 -1.74767e-141 -4.03394e-142  5.66486e-142  1.01831e-141  1.01723e-141  7.33715e-142  3.50327e-142             0
            0 -4.90979e-143 -6.20896e-143 -4.50352e-143 -1.49715e-143  1.18798e-143  2.63711e-143   2.7347e-143  1.90769e-143  7.60645e-144 -2.13787e-144  -7.6952e-144 -8.98091e-144 -7.37144e-144 -4.63293e-144 -2.14799e-144 -5.98703e-145 -3.14327e-146 -1.20559e-145 -4.52083e-145 -7.16136e-145 -7.77427e-145 -6.50256e-145 -4.28212e-145 -2.13692e-145 -7.26413e-146 -1.82141e-146 -1.56117e-146 -2.93993e-146 -3.85615e-146 -3.63509e-146 -2.51807e-146 -1.09849e-146  8.91044e-148  7.64471e-147  9.14135e-147  6.98644e-147  3.33431e-147 -3.01872e-149 -2.12548e-147 -2.76925e-147 -2.31544e-147 -1.32498e-147 -3.05078e-148  4.27344e-148  7.66291e-148  7.63587e-148  5.49405e-148  2.61678e-148             0
-2.33073e-160 -3.64022e-149 -4.59212e-149 -3.32259e-149 -1.10185e-149   8.7214e-150  1.93125e-149  1.99781e-149  1.39022e-149  5.52961e-150 -1.55028e-150 -5.56664e-150 -6.48081e-150 -5.30637e-150 -3.32689e-150  -1.5387e-150 -4.27838e-151 -2.24149e-152 -8.57325e-152 -3.20691e-151  -5.0676e-151 -5.48791e-151 -4.57903e-151 -3.00809e-151 -1.49749e-151 -5.07819e-152 -1.27025e-152 -1.08608e-152 -2.04026e-152 -2.66959e-152 -2.51046e-152 -1.73482e-152 -7.54975e-153  6.10853e-154   5.2286e-153  6.23714e-153  4.75535e-153  2.26405e-153 -2.04334e-155 -1.43626e-153 -1.86678e-153 -1.55711e-153 -8.88895e-154 -2.04179e-154  2.85312e-154  5.10381e-154   5.0736e-154  3.64174e-154  1.73038e-154             0
 4.44552e-166 -2.38986e-155  -3.0076e-155 -2.17093e-155 -7.18215e-156  5.67115e-156  1.25283e-155  1.29291e-155  8.97562e-156  3.56158e-156 -9.96107e-157 -3.56833e-156 -4.14447e-156 -3.38536e-156 -2.11745e-156 -9.77013e-157 -2.71021e-157 -1.41697e-158 -5.40517e-158   -2.017e-157 -3.17975e-157 -3.43533e-157 -2.85961e-157 -1.87413e-157 -9.30784e-158   -3.149e-158 -7.85849e-159 -6.70305e-159 -1.25622e-158 -1.63984e-158 -1.53846e-158 -1.06063e-158 -4.60494e-159  3.71678e-160  3.17416e-159  3.77755e-159  2.87336e-159  1.36482e-159 -1.22809e-161  -8.6175e-160 -1.11744e-159 -9.29901e-160 -5.29608e-160 -1.21369e-160  1.69195e-160  3.01962e-160  2.99476e-160  2.14458e-160  1.01663e-160             0
-2.11979e-172  -1.3943e-161 -1.75063e-161  -1.2607e-161 -4.16117e-162  3.27805e-162   7.2249e-162  7.43882e-162  5.15221e-162  2.03971e-162 -5.69132e-163 -2.03412e-162  -2.3571e-162 -1.92093e-162 -1.19872e-162 -5.51829e-163 -1.52726e-163 -7.96871e-165 -3.03193e-164 -1.12876e-163 -1.77537e-163 -1.91367e-163 -1.58931e-163 -1.03921e-163  -5.1494e-164 -1.73816e-164 -4.32782e-165 -3.68296e-165  -6.8863e-165 -8.96865e-165 -8.39496e-165 -5.77437e-165 -2.50135e-165  2.01413e-166  1.71628e-165   2.0379e-165  1.54658e-165  7.32943e-166 -6.57632e-168 -4.60673e-166 -5.96007e-166 -4.94853e-166 -2.81195e-166 -6.42953e-167  8.94259e-167  1.59237e-166  1.57569e-166  1.12582e-166  5.32485e-167             0
 1.01079e-178 -7.25348e-168 -9.08669e-168 -6.52895e-168 -2.15016e-168  1.68999e-168   3.7164e-168  3.81784e-168  2.63833e-168  1.04215e-168 -2.90124e-169 -1.03461e-168  -1.1962e-168 -9.72668e-169 -6.05617e-169 -2.78172e-169 -7.68163e-170 -4.00001e-171 -1.51816e-170 -5.63918e-170 -8.84972e-170 -9.51779e-170 -7.88693e-170 -5.14556e-170 -2.54402e-170 -8.56817e-171 -2.12867e-171 -1.80742e-171  -3.3719e-171 -4.38176e-171 -4.09236e-171 -2.80863e-171 -1.21395e-171  9.75256e-173  8.29246e-172  9.82459e-172  7.43947e-172  3.51787e-172 -3.14776e-174 -2.20128e-172 -2.84167e-172 -2.35418e-172 -1.33479e-172  -3.0453e-173  4.22615e-173  7.50882e-173  7.41379e-173  5.28544e-173   2.4944e-173             0
 4.81984e-185 -3.37546e-174 -4.21929e-174 -3.02499e-174 -9.94031e-175  7.79568e-175  1.71058e-174  1.75343e-174  1.20906e-174  4.76541e-175 -1.32371e-175 -4.71027e-175 -5.43406e-175 -4.40895e-175 -2.73919e-175 -1.25542e-175 -3.45931e-176 -1.79782e-177 -6.80709e-177 -2.52293e-176 -3.95069e-176  -4.2397e-176 -3.50561e-176 -2.28216e-176 -1.12588e-176 -3.78374e-177 -9.38011e-178 -7.94708e-178 -1.47937e-177 -1.91827e-177  -1.7877e-177 -1.22427e-177 -5.28014e-178  4.23248e-179  3.59126e-178  4.24563e-178  3.20799e-178  1.51369e-178 -1.35088e-180 -9.43097e-179 -1.21485e-178 -1.00428e-178  -5.6819e-179 -1.29355e-179  1.79125e-179  3.17579e-179  3.12889e-179  2.22587e-179  1.04822e-179             0
 2.29828e-191 -1.40938e-180 -1.75795e-180 -1.25766e-180 -4.12396e-181  3.22726e-181  7.06643e-181    7.228e-181  4.97342e-181  1.95606e-181 -5.42176e-182 -1.92519e-181 -2.21631e-181  -1.7944e-181 -1.11246e-181 -5.08781e-182 -1.39899e-182 -7.25659e-184 -2.74122e-183 -1.01381e-182 -1.58418e-182 -1.69648e-182 -1.39977e-182  -9.0933e-183 -4.47662e-183  -1.5013e-183 -3.71401e-184 -3.13991e-184 -5.83264e-184 -7.54712e-184 -7.01863e-184 -4.79646e-184 -2.06432e-184  1.65115e-185  1.39813e-184  1.64942e-184  1.24368e-184  5.85601e-185 -5.21294e-187 -3.63326e-185 -4.67039e-185 -3.85279e-185 -2.17524e-185 -4.94186e-186  6.82885e-186   1.2082e-185  1.18787e-185   8.4328e-186  3.96297e-186             0
            0 -5.29511e-187 -6.59098e-187 -4.70547e-187 -1.53976e-187  1.20244e-187  2.62741e-187  2.68191e-187  1.84154e-187  7.22782e-188 -1.99919e-188 -7.08427e-188 -8.13864e-188 -6.57569e-188 -4.06825e-188 -1.85677e-188 -5.09504e-189 -2.63782e-190 -9.94223e-190 -3.66938e-189 -5.72193e-189 -6.11491e-189 -5.03505e-189 -3.26418e-189 -1.60365e-189 -5.36704e-190 -1.32503e-190 -1.11789e-190 -2.07228e-190 -2.67592e-190 -2.48343e-190 -1.69367e-190 -7.27438e-191  5.80619e-192  4.90662e-191  5.77667e-191   4.3468e-191  2.04256e-191 -1.81383e-193 -1.26209e-191 -1.61905e-191  -1.3329e-191 -7.51004e-192 -1.70272e-192  2.34806e-192  4.14587e-192  4.06783e-192  2.88192e-192   1.3516e-192             0
 2.61284e-204 -1.79495e-193 -2.22969e-193 -1.58861e-193 -5.18786e-194   4.0431e-194   8.8166e-194  8.98129e-194  6.15455e-194  2.41072e-194 -6.65437e-195 -2.35328e-194 -2.69808e-194 -2.17554e-194 -1.34326e-194 -6.11836e-195 -1.67553e-195 -8.65854e-197 -3.25642e-196 -1.19941e-195 -1.86657e-195 -1.99075e-195 -1.63591e-195 -1.05842e-195 -5.18946e-196 -1.73332e-196 -4.27074e-197 -3.59584e-197 -6.65236e-197 -8.57292e-197 -7.94034e-197 -5.40441e-197 -2.31658e-197  1.84523e-198   1.5563e-197  1.82862e-197  1.37325e-197  6.44003e-198 -5.70543e-200 -3.96342e-198  -5.0743e-198 -4.16915e-198 -2.34439e-198 -5.30484e-199  7.30073e-199  1.28651e-198  1.25979e-198  8.90749e-199  4.16928e-199             0
 -1.2459e-210 -5.50399e-200 -6.82359e-200 -4.85207e-200 -1.58139e-200  1.22999e-200   2.6769e-200  2.72153e-200  1.86129e-200  7.27626e-201 -2.00449e-201 -7.07492e-201 -8.09556e-201 -6.51486e-201  -4.0146e-201 -1.82501e-201 -4.98807e-202 -2.57296e-203 -9.65637e-203 -3.54961e-202 -5.51321e-202  -5.8685e-202 -4.81302e-202 -3.10789e-202 -1.52083e-202 -5.06978e-203 -1.24672e-203 -1.04764e-203 -1.93434e-203 -2.48793e-203 -2.29985e-203 -1.56229e-203 -6.68366e-204  5.31315e-205  4.47265e-204  5.24504e-204  3.93124e-204  1.84003e-204 -1.62644e-206 -1.12801e-204 -1.44138e-204 -1.18197e-204 -6.63355e-205 -1.49812e-205  2.05775e-205  3.61908e-205  3.53706e-205  2.49609e-205  1.16607e-205             0
            0 -1.53045e-206 -1.89373e-206 -1.34398e-206 -4.37189e-207  3.39382e-207  7.37198e-207  7.48046e-207  5.10613e-207  1.99229e-207 -5.47779e-208  -1.9297e-207 -2.20385e-207 -1.77013e-207  -1.0887e-207 -4.93968e-208 -1.34753e-208 -6.93843e-210 -2.59868e-209 -9.53414e-209 -1.47799e-208 -1.57023e-208 -1.28536e-208 -8.28401e-209 -4.04601e-209 -1.34619e-209 -3.30417e-210 -2.77122e-210 -5.10694e-210 -6.55596e-210 -6.04882e-210 -4.10114e-210 -1.75118e-210  1.38939e-211  1.16742e-210  1.36642e-210  1.02221e-210  4.77541e-211 -4.21182e-213 -2.91641e-211 -3.71954e-211 -3.04435e-211 -1.70535e-211  -3.8441e-212  5.27001e-212  9.25116e-212  9.02441e-212  6.35646e-212  2.96388e-212             0
 7.08212e-224 -3.86805e-213 -4.77717e-213 -3.38398e-213 -1.09872e-213  8.51305e-214  1.84571e-213  1.86935e-213  1.27362e-213     4.96e-214 -1.36117e-214 -4.78615e-214 -5.45585e-214 -4.37393e-214  -2.6851e-214 -1.21601e-214 -3.31104e-215 -1.70188e-216 -6.36143e-216 -2.32951e-215 -3.60449e-215 -3.82228e-215 -3.12299e-215 -2.00899e-215 -9.79384e-216 -3.25256e-216 -7.96847e-217 -6.67064e-217   -1.227e-216 -1.57221e-216  -1.4479e-216 -9.79859e-217 -4.17622e-217  3.30713e-218  2.77371e-217  3.24051e-217  2.41971e-217  1.12831e-217 -9.93028e-220  -6.8652e-218 -8.73955e-218 -7.13987e-218 -3.99213e-218 -8.98225e-219  1.22912e-218  2.15366e-218  2.09699e-218  1.47432e-218  6.86176e-219             0
 3.37702e-230 -8.90555e-220 -1.09784e-219 -7.76242e-220 -2.51569e-220   1.9456e-220   4.2105e-220   4.2566e-220  2.89476e-220  1.12528e-220 -3.08238e-221 -1.08185e-220 -1.23097e-220 -9.85056e-221 -6.03606e-221 -2.72857e-221 -7.41602e-222 -3.80527e-223 -1.41962e-222 -5.18898e-222 -8.01431e-222 -8.48304e-222 -6.91842e-222 -4.44244e-222 -2.16175e-222 -7.16619e-223 -1.75247e-223 -1.46435e-223 -2.68862e-223 -3.43879e-223 -3.16112e-223 -2.13539e-223 -9.08466e-224  7.18079e-225  6.01181e-224  7.01085e-224  5.22555e-224  2.43226e-224 -2.13622e-226 -1.47455e-224 -1.87374e-224   -1.528e-224 -8.52811e-225 -1.91536e-225  2.61619e-225  4.57581e-225  4.44738e-225  3.12115e-225  1.45003e-225             0
 4.02572e-237 -1.87176e-226 -2.30328e-226 -1.62563e-226 -5.25899e-227  4.05988e-227   8.7703e-227   8.8504e-227  6.00804e-227  2.33131e-227 -6.37445e-228  -2.2333e-227 -2.53658e-227 -2.02621e-227 -1.23937e-227 -5.59248e-228 -1.51728e-228 -7.77223e-230 -2.89408e-229 -1.05594e-228 -1.62798e-228 -1.72012e-228 -1.40036e-228  -8.9759e-229 -4.36002e-229 -1.44277e-229   -3.522e-230  -2.9377e-230 -5.38413e-230 -6.87413e-230 -6.30784e-230 -4.25349e-230 -1.80636e-230  1.42522e-231  1.19112e-230   1.3866e-230  1.03167e-230  4.79349e-231 -4.20162e-233 -2.89573e-231 -3.67316e-231 -2.99011e-231 -1.66589e-231  -3.7349e-232  5.09242e-232  8.89114e-232  8.62634e-232  6.04326e-232  2.80263e-232             0
 9.59806e-244 -3.59865e-233  -4.4205e-233 -3.11446e-233 -1.00577e-233  7.75074e-234  1.67141e-233  1.68371e-233  1.14097e-233  4.41957e-234  -1.2063e-234 -4.21891e-234 -4.78344e-234  -3.8143e-234   -2.329e-234 -1.04909e-234  -2.8413e-235 -1.45304e-236 -5.40061e-236 -1.96702e-235 -3.02731e-235 -3.19307e-235 -2.59496e-235  -1.6604e-235 -8.05128e-236 -2.65962e-236 -6.48121e-237 -5.39652e-237 -9.87331e-237 -1.25837e-236  -1.1527e-236 -7.75934e-237  -3.2895e-237  2.59083e-238  2.16157e-237  2.51195e-237  1.86573e-237  8.65376e-238 -7.57048e-240 -5.20959e-238  -6.5968e-238 -5.36078e-238 -2.98151e-238 -6.67296e-239  9.08258e-239  1.58304e-238  1.53324e-238  1.07227e-238  4.96422e-239             0
 2.28836e-250 -6.34124e-240 -7.77604e-240 -5.46918e-240 -1.76316e-240  1.35639e-240  2.91996e-240   2.9364e-240  1.98644e-240  7.68133e-241 -2.09295e-241 -7.30739e-241 -8.27099e-241 -6.58396e-241 -4.01326e-241 -1.80467e-241 -4.87931e-242 -2.49122e-243 -9.24268e-243  -3.3606e-242 -5.16324e-242 -5.43664e-242 -4.41072e-242 -2.81741e-242 -1.36383e-242 -4.49755e-243 -1.09415e-243 -9.09471e-244  -1.6611e-243 -2.11349e-243 -1.93271e-243 -1.29879e-243 -5.49673e-244  4.32178e-245  3.59969e-244  4.17608e-244  3.09649e-244   1.4338e-244 -1.25194e-246 -8.60223e-245 -1.08744e-244 -8.82191e-245 -4.89819e-245 -1.09442e-245  1.48708e-245  2.58752e-245  2.50189e-245  1.74674e-245   8.0731e-246             0
 5.45587e-257 -1.02603e-246 -1.25607e-246 -8.81952e-247 -2.83846e-247  2.17992e-247  4.68493e-247  4.70339e-247  3.17644e-247  1.22623e-247 -3.33549e-248 -1.16261e-247 -1.31371e-247   -1.044e-247 -6.35304e-248 -2.85203e-248 -7.69818e-249 -3.92416e-250 -1.45335e-249 -5.27544e-249 -8.09164e-249 -8.50585e-249 -6.88923e-249 -4.39324e-249  -2.1231e-249 -6.98974e-250 -1.69761e-250 -1.40871e-250 -2.56863e-250 -3.26273e-250 -2.97869e-250 -1.99835e-250 -8.44334e-251  6.62732e-252  5.51095e-251  6.38275e-251  4.72483e-251  2.18415e-251  -1.9036e-253 -1.30605e-251 -1.64829e-251 -1.33497e-251 -7.39987e-252 -1.65065e-252  2.23914e-252  3.88966e-252  3.75471e-252  2.61708e-252  1.20756e-252             0
            0             0             0             0             0             0             0             0             0             0             0             0             0             0             0             0             0             0             0             0             0             0             0             0             0             0             0             0             0             0             0             0             0             0             0             0             0             0             0             0             0             0             0             0             0             0             0             0             0             0
